<?xml version="1.0" encoding="UTF-8"?>
<session version="1.0">
<refactoring comment="Delete resource &apos;lab4/src/lab4.c&apos;" deleteContents="false" description="Delete resource &apos;lab4/src/lab4.c&apos;" element1="/lab4/src/lab4.c" flags="7" id="org.eclipse.ltk.core.refactoring.delete.resources" resources="1" stamp="1556195945752"/>
</session>