<?xml version="1.0" encoding="UTF-8"?>
<session version="1.0">
<refactoring comment="Delete resource &apos;Final_Software/src/xgpio_g.c&apos;" deleteContents="false" description="Delete resource &apos;Final_Software/src/xgpio_g.c&apos;" element1="/Final_Software/src/xgpio_g.c" flags="7" id="org.eclipse.ltk.core.refactoring.delete.resources" resources="1" stamp="1556997880617"/>
</session>