verilog xil_defaultlib --include "../../../../Final_Project_FIR.srcs/sources_1/bd/System/ipshared/ec67/hdl" --include "../../../../Final_Project_FIR.srcs/sources_1/bd/System/ipshared/70cf/hdl" --include "../../../../Final_Project_FIR.srcs/sources_1/bd/System/ip/System_processing_system7_0_0" \
"../../../bd/System/ip/System_processing_system7_0_0/sim/System_processing_system7_0_0.v" \
"../../../bd/System/sim/System.v" \
"../../../bd/System/ip/System_xbar_0/sim/System_xbar_0.v" \
"../../../../Final_Project_FIR.srcs/sources_1/bd/System/ipshared/aff9/hdl/verilog/mlhdlc_sfir_fixpt.v" \
"../../../../Final_Project_FIR.srcs/sources_1/bd/System/ipshared/aff9/hdl/verilog/mlhdlc_sfir_fixpt_ipcore_SimpleDualPortRAM_generic.v" \
"../../../../Final_Project_FIR.srcs/sources_1/bd/System/ipshared/aff9/hdl/verilog/mlhdlc_sfir_fixpt_ipcore_SimpleDualPortRAM_singlebit.v" \
"../../../../Final_Project_FIR.srcs/sources_1/bd/System/ipshared/aff9/hdl/verilog/mlhdlc_sfir_fixpt_ipcore_addr_decoder.v" \
"../../../../Final_Project_FIR.srcs/sources_1/bd/System/ipshared/aff9/hdl/verilog/mlhdlc_sfir_fixpt_ipcore_axi4_stream_master.v" \
"../../../../Final_Project_FIR.srcs/sources_1/bd/System/ipshared/aff9/hdl/verilog/mlhdlc_sfir_fixpt_ipcore_axi4_stream_slave.v" \
"../../../../Final_Project_FIR.srcs/sources_1/bd/System/ipshared/aff9/hdl/verilog/mlhdlc_sfir_fixpt_ipcore_axi_lite.v" \
"../../../../Final_Project_FIR.srcs/sources_1/bd/System/ipshared/aff9/hdl/verilog/mlhdlc_sfir_fixpt_ipcore_axi_lite_module.v" \
"../../../../Final_Project_FIR.srcs/sources_1/bd/System/ipshared/aff9/hdl/verilog/mlhdlc_sfir_fixpt_ipcore_dut.v" \
"../../../../Final_Project_FIR.srcs/sources_1/bd/System/ipshared/aff9/hdl/verilog/mlhdlc_sfir_fixpt_ipcore_fifo_TLAST_OUT.v" \
"../../../../Final_Project_FIR.srcs/sources_1/bd/System/ipshared/aff9/hdl/verilog/mlhdlc_sfir_fixpt_ipcore_fifo_TLAST_OUT_classic.v" \
"../../../../Final_Project_FIR.srcs/sources_1/bd/System/ipshared/aff9/hdl/verilog/mlhdlc_sfir_fixpt_ipcore_fifo_data.v" \
"../../../../Final_Project_FIR.srcs/sources_1/bd/System/ipshared/aff9/hdl/verilog/mlhdlc_sfir_fixpt_ipcore_fifo_data_OUT.v" \
"../../../../Final_Project_FIR.srcs/sources_1/bd/System/ipshared/aff9/hdl/verilog/mlhdlc_sfir_fixpt_ipcore_fifo_data_OUT_classic.v" \
"../../../../Final_Project_FIR.srcs/sources_1/bd/System/ipshared/aff9/hdl/verilog/mlhdlc_sfir_fixpt_ipcore_fifo_data_classic.v" \
"../../../../Final_Project_FIR.srcs/sources_1/bd/System/ipshared/aff9/hdl/verilog/mlhdlc_sfir_fixpt_ipcore.v" \
"../../../bd/System/ip/System_mlhdlc_sfir_fixpt_ip_0_0/sim/System_mlhdlc_sfir_fixpt_ip_0_0.v" \
"../../../bd/System/ip/System_auto_pc_0/sim/System_auto_pc_0.v" \
"../../../bd/System/ip/System_auto_ds_0/sim/System_auto_ds_0.v" \
"../../../bd/System/ip/System_auto_pc_1/sim/System_auto_pc_1.v" \

verilog xil_defaultlib "glbl.v"

nosort
