Copyright 1986-2018 Xilinx, Inc. All Rights Reserved.
-------------------------------------------------------------------------------------------
| Tool Version : Vivado v.2018.3 (win64) Build 2405991 Thu Dec  6 23:38:27 MST 2018
| Date         : Thu Mar 28 10:58:37 2019
| Host         : DESKTOP-MC6SQ8S running 64-bit major release  (build 9200)
| Command      : report_control_sets -verbose -file System_wrapper_control_sets_placed.rpt
| Design       : System_wrapper
| Device       : xc7z020
-------------------------------------------------------------------------------------------

Control Set Information

Table of Contents
-----------------
1. Summary
2. Histogram
3. Flip-Flop Distribution
4. Detailed Control Set Information

1. Summary
----------

+----------------------------------------------------------+-------+
|                          Status                          | Count |
+----------------------------------------------------------+-------+
| Number of unique control sets                            |    57 |
| Unused register locations in slices containing registers |   119 |
+----------------------------------------------------------+-------+


2. Histogram
------------

+--------+--------------+
| Fanout | Control Sets |
+--------+--------------+
|      1 |            1 |
|      2 |            1 |
|      4 |            8 |
|      5 |            4 |
|      6 |            1 |
|      8 |           17 |
|     10 |            2 |
|     11 |            1 |
|     12 |            4 |
|     13 |            1 |
|     14 |            2 |
|    16+ |           15 |
+--------+--------------+


3. Flip-Flop Distribution
-------------------------

+--------------+-----------------------+------------------------+-----------------+--------------+
| Clock Enable | Synchronous Set/Reset | Asynchronous Set/Reset | Total Registers | Total Slices |
+--------------+-----------------------+------------------------+-----------------+--------------+
| No           | No                    | No                     |             181 |           60 |
| No           | No                    | Yes                    |               0 |            0 |
| No           | Yes                   | No                     |              71 |           28 |
| Yes          | No                    | No                     |             443 |           96 |
| Yes          | No                    | Yes                    |               0 |            0 |
| Yes          | Yes                   | No                     |             226 |           47 |
+--------------+-----------------------+------------------------+-----------------+--------------+


4. Detailed Control Set Information
-----------------------------------

+-----------------------------------------------+--------------------------------------------------------------------------------------------------------------------------------------------------------------+-----------------------------------------------------------------------------------------------------------------------------------------------------+------------------+----------------+
|                  Clock Signal                 |                                                                         Enable Signal                                                                        |                                                                   Set/Reset Signal                                                                  | Slice Load Count | Bel Load Count |
+-----------------------------------------------+--------------------------------------------------------------------------------------------------------------------------------------------------------------+-----------------------------------------------------------------------------------------------------------------------------------------------------+------------------+----------------+
|  System_i/processing_system7_0/inst/FCLK_CLK0 | System_i/ps7_0_axi_periph/s00_couplers/auto_pc/inst/gen_axilite.gen_b2s_conv.axilite_b2s/WR.aw_channel_0/aw_cmd_fsm_0/m_axi_awready_1                        | System_i/ps7_0_axi_periph/s00_couplers/auto_pc/inst/gen_axilite.gen_b2s_conv.axilite_b2s/WR.aw_channel_0/aw_cmd_fsm_0/m_axi_awready_0               |                1 |              1 |
|  System_i/processing_system7_0/inst/FCLK_CLK0 | System_i/ps7_0_axi_periph/s00_couplers/auto_pc/inst/gen_axilite.gen_b2s_conv.axilite_b2s/WR.b_channel_0/bid_fifo_0/sel                                       |                                                                                                                                                     |                1 |              2 |
|  System_i/processing_system7_0/inst/FCLK_CLK0 | System_i/switches/U0/AXI_LITE_IPIF_I/I_SLAVE_ATTACHMENT/I_DECODER/bus2ip_rnw_i_reg[0]                                                                        | System_i/switches/U0/AXI_LITE_IPIF_I/I_SLAVE_ATTACHMENT/SR[0]                                                                                       |                1 |              4 |
|  System_i/processing_system7_0/inst/FCLK_CLK0 |                                                                                                                                                              | System_i/switches/U0/AXI_LITE_IPIF_I/I_SLAVE_ATTACHMENT/I_DECODER/bus2ip_rnw_i_reg_0                                                                |                1 |              4 |
|  System_i/processing_system7_0/inst/FCLK_CLK0 |                                                                                                                                                              | System_i/switches/U0/AXI_LITE_IPIF_I/I_SLAVE_ATTACHMENT/clear                                                                                       |                1 |              4 |
|  System_i/processing_system7_0/inst/FCLK_CLK0 | System_i/switches/U0/AXI_LITE_IPIF_I/I_SLAVE_ATTACHMENT/bus2ip_addr_i[8]_i_1_n_0                                                                             | System_i/switches/U0/AXI_LITE_IPIF_I/I_SLAVE_ATTACHMENT/SR[0]                                                                                       |                1 |              4 |
|  System_i/processing_system7_0/inst/FCLK_CLK0 |                                                                                                                                                              | System_i/rst_ps7_0_100M/U0/EXT_LPF/lpf_int                                                                                                          |                2 |              4 |
|  System_i/processing_system7_0/inst/FCLK_CLK0 | System_i/switches/U0/AXI_LITE_IPIF_I/I_SLAVE_ATTACHMENT/start2                                                                                               | System_i/switches/U0/AXI_LITE_IPIF_I/I_SLAVE_ATTACHMENT/I_DECODER/cs_ce_clr                                                                         |                1 |              4 |
|  System_i/processing_system7_0/inst/FCLK_CLK0 |                                                                                                                                                              | System_i/ps7_0_axi_periph/s00_couplers/auto_pc/inst/gen_axilite.gen_b2s_conv.axilite_b2s/SI_REG/ar.ar_pipe/aresetn_d_reg[1]_inv_0                   |                3 |              4 |
|  System_i/processing_system7_0/inst/FCLK_CLK0 |                                                                                                                                                              | System_i/ps7_0_axi_periph/s00_couplers/auto_pc/inst/gen_axilite.gen_b2s_conv.axilite_b2s/SI_REG/aw.aw_pipe/aresetn_d_reg[0]_0                       |                3 |              4 |
|  System_i/processing_system7_0/inst/FCLK_CLK0 | System_i/switches/U0/AXI_LITE_IPIF_I/I_SLAVE_ATTACHMENT/s_axi_rresp_i                                                                                        | System_i/switches/U0/AXI_LITE_IPIF_I/I_SLAVE_ATTACHMENT/SR[0]                                                                                       |                1 |              5 |
|  System_i/processing_system7_0/inst/FCLK_CLK0 | System_i/ps7_0_axi_periph/s00_couplers/auto_pc/inst/gen_axilite.gen_b2s_conv.axilite_b2s/RD.r_channel_0/rd_data_fifo_0/cnt_read[4]_i_1_n_0                   | System_i/ps7_0_axi_periph/s00_couplers/auto_pc/inst/gen_axilite.gen_b2s_conv.axilite_b2s/areset_d1                                                  |                2 |              5 |
|  System_i/processing_system7_0/inst/FCLK_CLK0 | System_i/ps7_0_axi_periph/s00_couplers/auto_pc/inst/gen_axilite.gen_b2s_conv.axilite_b2s/RD.ar_channel_0/ar_cmd_fsm_0/m_valid_i_reg                          | System_i/ps7_0_axi_periph/s00_couplers/auto_pc/inst/gen_axilite.gen_b2s_conv.axilite_b2s/RD.ar_channel_0/ar_cmd_fsm_0/FSM_sequential_state_reg[0]_0 |                2 |              5 |
|  System_i/processing_system7_0/inst/FCLK_CLK0 | System_i/ps7_0_axi_periph/s00_couplers/auto_pc/inst/gen_axilite.gen_b2s_conv.axilite_b2s/RD.r_channel_0/rd_data_fifo_0/E[0]                                  | System_i/ps7_0_axi_periph/s00_couplers/auto_pc/inst/gen_axilite.gen_b2s_conv.axilite_b2s/areset_d1                                                  |                2 |              5 |
|  System_i/processing_system7_0/inst/FCLK_CLK0 | System_i/rst_ps7_0_100M/U0/SEQ/seq_cnt_en                                                                                                                    | System_i/rst_ps7_0_100M/U0/SEQ/SEQ_COUNTER/clear                                                                                                    |                1 |              6 |
|  System_i/processing_system7_0/inst/FCLK_CLK0 | System_i/user_DIO_IP_0/inst/user_DIO_IP_v1_0_S00_AXI_inst/slv_reg1[7]_i_1_n_0                                                                                | System_i/user_DIO_IP_0/inst/user_DIO_IP_v1_0_S00_AXI_inst/axi_awready_i_1_n_0                                                                       |                1 |              8 |
|  System_i/processing_system7_0/inst/FCLK_CLK0 | System_i/user_DIO_IP_0/inst/user_DIO_IP_v1_0_S00_AXI_inst/slv_reg2[7]_i_1_n_0                                                                                | System_i/user_DIO_IP_0/inst/user_DIO_IP_v1_0_S00_AXI_inst/axi_awready_i_1_n_0                                                                       |                1 |              8 |
|  System_i/processing_system7_0/inst/FCLK_CLK0 | System_i/ps7_0_axi_periph/s00_couplers/auto_pc/inst/gen_axilite.gen_b2s_conv.axilite_b2s/WR.b_channel_0/mhandshake_r                                         | System_i/ps7_0_axi_periph/s00_couplers/auto_pc/inst/gen_axilite.gen_b2s_conv.axilite_b2s/WR.b_channel_0/bid_fifo_0/SR[0]                            |                2 |              8 |
|  System_i/processing_system7_0/inst/FCLK_CLK0 | System_i/user_DIO_IP_0/inst/user_DIO_IP_v1_0_S00_AXI_inst/p_1_in[23]                                                                                         | System_i/user_DIO_IP_0/inst/user_DIO_IP_v1_0_S00_AXI_inst/axi_awready_i_1_n_0                                                                       |                1 |              8 |
|  System_i/processing_system7_0/inst/FCLK_CLK0 | System_i/user_DIO_IP_0/inst/user_DIO_IP_v1_0_S00_AXI_inst/p_1_in[15]                                                                                         | System_i/user_DIO_IP_0/inst/user_DIO_IP_v1_0_S00_AXI_inst/axi_awready_i_1_n_0                                                                       |                1 |              8 |
|  System_i/processing_system7_0/inst/FCLK_CLK0 | System_i/user_DIO_IP_0/inst/user_DIO_IP_v1_0_S00_AXI_inst/slv_reg1[23]_i_1_n_0                                                                               | System_i/user_DIO_IP_0/inst/user_DIO_IP_v1_0_S00_AXI_inst/axi_awready_i_1_n_0                                                                       |                3 |              8 |
|  System_i/processing_system7_0/inst/FCLK_CLK0 | System_i/user_DIO_IP_0/inst/user_DIO_IP_v1_0_S00_AXI_inst/slv_reg0[23]_i_1_n_0                                                                               | System_i/user_DIO_IP_0/inst/user_DIO_IP_v1_0_S00_AXI_inst/axi_awready_i_1_n_0                                                                       |                1 |              8 |
|  System_i/processing_system7_0/inst/FCLK_CLK0 | System_i/user_DIO_IP_0/inst/user_DIO_IP_v1_0_S00_AXI_inst/slv_reg2[31]_i_1_n_0                                                                               | System_i/user_DIO_IP_0/inst/user_DIO_IP_v1_0_S00_AXI_inst/axi_awready_i_1_n_0                                                                       |                1 |              8 |
|  System_i/processing_system7_0/inst/FCLK_CLK0 | System_i/user_DIO_IP_0/inst/user_DIO_IP_v1_0_S00_AXI_inst/slv_reg1[31]_i_1_n_0                                                                               | System_i/user_DIO_IP_0/inst/user_DIO_IP_v1_0_S00_AXI_inst/axi_awready_i_1_n_0                                                                       |                1 |              8 |
|  System_i/processing_system7_0/inst/FCLK_CLK0 | System_i/user_DIO_IP_0/inst/user_DIO_IP_v1_0_S00_AXI_inst/slv_reg0[7]_i_1_n_0                                                                                | System_i/user_DIO_IP_0/inst/user_DIO_IP_v1_0_S00_AXI_inst/axi_awready_i_1_n_0                                                                       |                1 |              8 |
|  System_i/processing_system7_0/inst/FCLK_CLK0 | System_i/user_DIO_IP_0/inst/user_DIO_IP_v1_0_S00_AXI_inst/slv_reg1[15]_i_1_n_0                                                                               | System_i/user_DIO_IP_0/inst/user_DIO_IP_v1_0_S00_AXI_inst/axi_awready_i_1_n_0                                                                       |                1 |              8 |
|  System_i/processing_system7_0/inst/FCLK_CLK0 | System_i/user_DIO_IP_0/inst/user_DIO_IP_v1_0_S00_AXI_inst/slv_reg2[23]_i_1_n_0                                                                               | System_i/user_DIO_IP_0/inst/user_DIO_IP_v1_0_S00_AXI_inst/axi_awready_i_1_n_0                                                                       |                1 |              8 |
|  System_i/processing_system7_0/inst/FCLK_CLK0 | System_i/user_DIO_IP_0/inst/user_DIO_IP_v1_0_S00_AXI_inst/p_1_in[31]                                                                                         | System_i/user_DIO_IP_0/inst/user_DIO_IP_v1_0_S00_AXI_inst/axi_awready_i_1_n_0                                                                       |                1 |              8 |
|  System_i/processing_system7_0/inst/FCLK_CLK0 | System_i/user_DIO_IP_0/inst/user_DIO_IP_v1_0_S00_AXI_inst/slv_reg2[15]_i_1_n_0                                                                               | System_i/user_DIO_IP_0/inst/user_DIO_IP_v1_0_S00_AXI_inst/axi_awready_i_1_n_0                                                                       |                1 |              8 |
|  System_i/processing_system7_0/inst/FCLK_CLK0 | System_i/user_DIO_IP_0/inst/user_DIO_IP_v1_0_S00_AXI_inst/slv_reg0[31]_i_1_n_0                                                                               | System_i/user_DIO_IP_0/inst/user_DIO_IP_v1_0_S00_AXI_inst/axi_awready_i_1_n_0                                                                       |                1 |              8 |
|  System_i/processing_system7_0/inst/FCLK_CLK0 | System_i/user_DIO_IP_0/inst/user_DIO_IP_v1_0_S00_AXI_inst/p_1_in[7]                                                                                          | System_i/user_DIO_IP_0/inst/user_DIO_IP_v1_0_S00_AXI_inst/axi_awready_i_1_n_0                                                                       |                1 |              8 |
|  System_i/processing_system7_0/inst/FCLK_CLK0 | System_i/user_DIO_IP_0/inst/user_DIO_IP_v1_0_S00_AXI_inst/slv_reg0[15]_i_1_n_0                                                                               | System_i/user_DIO_IP_0/inst/user_DIO_IP_v1_0_S00_AXI_inst/axi_awready_i_1_n_0                                                                       |                1 |              8 |
|  System_i/processing_system7_0/inst/FCLK_CLK0 |                                                                                                                                                              | System_i/ps7_0_axi_periph/s00_couplers/auto_pc/inst/gen_axilite.gen_b2s_conv.axilite_b2s/areset_d1                                                  |                4 |             10 |
|  System_i/processing_system7_0/inst/FCLK_CLK0 |                                                                                                                                                              | System_i/user_DIO_IP_0/inst/user_DIO_IP_v1_0_S00_AXI_inst/axi_awready_i_1_n_0                                                                       |                3 |             10 |
|  System_i/processing_system7_0/inst/FCLK_CLK0 |                                                                                                                                                              | System_i/ps7_0_axi_periph/xbar/inst/gen_sasd.crossbar_sasd_0/addr_arbiter_inst/SR[0]                                                                |                5 |             11 |
|  System_i/processing_system7_0/inst/FCLK_CLK0 | System_i/ps7_0_axi_periph/s00_couplers/auto_pc/inst/gen_axilite.gen_b2s_conv.axilite_b2s/WR.aw_channel_0/cmd_translator_0/incr_cmd_0/axaddr_incr[11]_i_1_n_0 |                                                                                                                                                     |                2 |             12 |
|  System_i/processing_system7_0/inst/FCLK_CLK0 | System_i/ps7_0_axi_periph/s00_couplers/auto_pc/inst/gen_axilite.gen_b2s_conv.axilite_b2s/RD.ar_channel_0/ar_cmd_fsm_0/sel_first_reg[0]                       |                                                                                                                                                     |                2 |             12 |
|  System_i/processing_system7_0/inst/FCLK_CLK0 | System_i/ps7_0_axi_periph/s00_couplers/auto_pc/inst/gen_axilite.gen_b2s_conv.axilite_b2s/RD.ar_channel_0/ar_cmd_fsm_0/E[0]                                   |                                                                                                                                                     |                4 |             12 |
|  System_i/processing_system7_0/inst/FCLK_CLK0 | System_i/ps7_0_axi_periph/s00_couplers/auto_pc/inst/gen_axilite.gen_b2s_conv.axilite_b2s/WR.aw_channel_0/aw_cmd_fsm_0/E[0]                                   |                                                                                                                                                     |                5 |             12 |
|  System_i/processing_system7_0/inst/FCLK_CLK0 | System_i/ps7_0_axi_periph/s00_couplers/auto_pc/inst/gen_axilite.gen_b2s_conv.axilite_b2s/RD.r_channel_0/r_push_r                                             |                                                                                                                                                     |                4 |             13 |
|  System_i/processing_system7_0/inst/FCLK_CLK0 | System_i/ps7_0_axi_periph/s00_couplers/auto_pc/inst/gen_axilite.gen_b2s_conv.axilite_b2s/SI_REG/b.b_pipe/s_ready_i_reg_0                                     |                                                                                                                                                     |                3 |             14 |
|  System_i/processing_system7_0/inst/FCLK_CLK0 | System_i/ps7_0_axi_periph/s00_couplers/auto_pc/inst/gen_axilite.gen_b2s_conv.axilite_b2s/SI_REG/b.b_pipe/p_1_in                                              |                                                                                                                                                     |                2 |             14 |
|  System_i/processing_system7_0/inst/FCLK_CLK0 | System_i/ps7_0_axi_periph/s00_couplers/auto_pc/inst/gen_axilite.gen_b2s_conv.axilite_b2s/WR.aw_channel_0/aw_cmd_fsm_0/b_push                                 |                                                                                                                                                     |                3 |             16 |
|  System_i/processing_system7_0/inst/FCLK_CLK0 | System_i/ps7_0_axi_periph/xbar/inst/gen_sasd.crossbar_sasd_0/addr_arbiter_inst/p_0_in1_in                                                                    | System_i/ps7_0_axi_periph/xbar/inst/gen_sasd.crossbar_sasd_0/addr_arbiter_inst/SR[0]                                                                |                6 |             19 |
|  System_i/processing_system7_0/inst/FCLK_CLK0 |                                                                                                                                                              | System_i/switches/U0/AXI_LITE_IPIF_I/I_SLAVE_ATTACHMENT/SR[0]                                                                                       |                6 |             20 |
|  System_i/processing_system7_0/inst/FCLK_CLK0 | System_i/ps7_0_axi_periph/s00_couplers/auto_pc/inst/gen_axilite.gen_b2s_conv.axilite_b2s/RD.ar_channel_0/ar_cmd_fsm_0/m_valid_i_reg                          |                                                                                                                                                     |                8 |             21 |
|  System_i/processing_system7_0/inst/FCLK_CLK0 | System_i/ps7_0_axi_periph/s00_couplers/auto_pc/inst/gen_axilite.gen_b2s_conv.axilite_b2s/WR.aw_channel_0/aw_cmd_fsm_0/m_axi_awready_1                        |                                                                                                                                                     |                9 |             25 |
|  System_i/processing_system7_0/inst/FCLK_CLK0 | System_i/user_DIO_IP_0/inst/user_DIO_IP_v1_0_S00_AXI_inst/slv_reg_rden__0                                                                                    | System_i/user_DIO_IP_0/inst/user_DIO_IP_v1_0_S00_AXI_inst/axi_awready_i_1_n_0                                                                       |                9 |             32 |
|  System_i/processing_system7_0/inst/FCLK_CLK0 | System_i/ps7_0_axi_periph/s00_couplers/auto_pc/inst/gen_axilite.gen_b2s_conv.axilite_b2s/RD.r_channel_0/rd_data_fifo_0/wr_en0                                |                                                                                                                                                     |               10 |             34 |
|  System_i/processing_system7_0/inst/FCLK_CLK0 | System_i/ps7_0_axi_periph/xbar/inst/gen_sasd.crossbar_sasd_0/addr_arbiter_inst/E[0]                                                                          |                                                                                                                                                     |                7 |             35 |
|  System_i/processing_system7_0/inst/FCLK_CLK0 | System_i/ps7_0_axi_periph/s00_couplers/auto_pc/inst/gen_axilite.gen_b2s_conv.axilite_b2s/SI_REG/r.r_pipe/s_ready_i_reg_0                                     |                                                                                                                                                     |                8 |             47 |
|  System_i/processing_system7_0/inst/FCLK_CLK0 | System_i/ps7_0_axi_periph/s00_couplers/auto_pc/inst/gen_axilite.gen_b2s_conv.axilite_b2s/SI_REG/r.r_pipe/p_1_in                                              |                                                                                                                                                     |                7 |             47 |
|  System_i/processing_system7_0/inst/FCLK_CLK0 | System_i/ps7_0_axi_periph/s00_couplers/auto_pc/inst/gen_axilite.gen_b2s_conv.axilite_b2s/WR.aw_channel_0/aw_cmd_fsm_0/m_valid_i_reg[0]                       |                                                                                                                                                     |                9 |             48 |
|  System_i/processing_system7_0/inst/FCLK_CLK0 | System_i/ps7_0_axi_periph/s00_couplers/auto_pc/inst/gen_axilite.gen_b2s_conv.axilite_b2s/RD.ar_channel_0/ar_cmd_fsm_0/FSM_sequential_state_reg[1]_0[0]       |                                                                                                                                                     |                9 |             48 |
|  System_i/processing_system7_0/inst/FCLK_CLK0 | System_i/ps7_0_axi_periph/s00_couplers/auto_pc/inst/gen_axilite.gen_b2s_conv.axilite_b2s/SI_REG/ar.ar_pipe/s_ready_i_reg_0                                   |                                                                                                                                                     |               12 |             48 |
|  System_i/processing_system7_0/inst/FCLK_CLK0 | System_i/ps7_0_axi_periph/s00_couplers/auto_pc/inst/gen_axilite.gen_b2s_conv.axilite_b2s/SI_REG/aw.aw_pipe/s_ready_i_reg_0                                   |                                                                                                                                                     |                9 |             48 |
|  System_i/processing_system7_0/inst/FCLK_CLK0 |                                                                                                                                                              |                                                                                                                                                     |               61 |            182 |
+-----------------------------------------------+--------------------------------------------------------------------------------------------------------------------------------------------------------------+-----------------------------------------------------------------------------------------------------------------------------------------------------+------------------+----------------+


