verilog xil_defaultlib --include "../../../../Lab_1.srcs/sources_1/bd/System/ipshared/ec67/hdl" --include "../../../../Lab_1.srcs/sources_1/bd/System/ipshared/70cf/hdl" --include "../../../../Lab_1.srcs/sources_1/bd/System/ip/System_processing_system7_0_0" \
"../../../bd/System/ip/System_processing_system7_0_0/sim/System_processing_system7_0_0.v" \
"../../../bd/System/sim/System.v" \

verilog xil_defaultlib "glbl.v"

nosort
