Design Route Status
                                               :      # nets :
   ------------------------------------------- : ----------- :
   # of logical nets.......................... :        8370 :
       # of nets not needing routing.......... :        5360 :
           # of internally routed nets........ :        5360 :
       # of routable nets..................... :        3010 :
           # of fully routed nets............. :        3010 :
       # of nets with routing errors.......... :           0 :
   ------------------------------------------- : ----------- :

