verilog xil_defaultlib --include "../../../../Midterm_2_JeremyBlaire.srcs/sources_1/bd/System/ipshared/ec67/hdl" --include "../../../../Midterm_2_JeremyBlaire.srcs/sources_1/bd/System/ipshared/70cf/hdl" --include "../../../../Midterm_2_JeremyBlaire.srcs/sources_1/bd/System/ip/System_processing_system7_0_0" \
"../../../bd/System/ip/System_processing_system7_0_0/sim/System_processing_system7_0_0.v" \
"../../../bd/System/sim/System.v" \
"../../../bd/System/ip/System_xbar_0/sim/System_xbar_0.v" \
"../../../bd/System/ipshared/ca07/src/my_gpio_ip_user_logic.v" \
"../../../bd/System/ipshared/ca07/hdl/user_DIO_IP_v1_0_S00_AXI.v" \
"../../../bd/System/ipshared/ca07/hdl/user_DIO_IP_v1_0.v" \
"../../../bd/System/ip/System_user_DIO_IP_0_0/sim/System_user_DIO_IP_0_0.v" \
"../../../bd/System/ip/System_auto_pc_0/sim/System_auto_pc_0.v" \

verilog xil_defaultlib "glbl.v"

nosort
