verilog xil_defaultlib --include "../../../../FINAL.srcs/sources_1/bd/System/ipshared/ec67/hdl" --include "../../../../FINAL.srcs/sources_1/bd/System/ipshared/70cf/hdl" --include "../../../../FINAL.srcs/sources_1/bd/System/ip/System_processing_system7_0_0" \
"../../../bd/System/ip/System_processing_system7_0_0/sim/System_processing_system7_0_0.v" \
"../../../bd/System/sim/System.v" \
"../../../bd/System/ip/System_xbar_0/sim/System_xbar_0.v" \
"../../../bd/System/ip/System_xbar_1/sim/System_xbar_1.v" \
"../../../bd/System/ip/System_auto_pc_0/sim/System_auto_pc_0.v" \
"../../../bd/System/ip/System_auto_us_0/sim/System_auto_us_0.v" \
"../../../bd/System/ip/System_auto_us_1/sim/System_auto_us_1.v" \
"../../../bd/System/ip/System_auto_pc_1/sim/System_auto_pc_1.v" \

verilog xil_defaultlib "glbl.v"

nosort
