Design Route Status
                                               :      # nets :
   ------------------------------------------- : ----------- :
   # of logical nets.......................... :        3269 :
       # of nets not needing routing.......... :        1818 :
           # of internally routed nets........ :        1818 :
       # of routable nets..................... :        1451 :
           # of fully routed nets............. :        1451 :
       # of nets with routing errors.......... :           0 :
   ------------------------------------------- : ----------- :

