#-----------------------------------------------------------
# Vivado v2018.3 (64-bit)
# SW Build 2405991 on Thu Dec  6 23:38:27 MST 2018
# IP Build 2404404 on Fri Dec  7 01:43:56 MST 2018
# Start of session at: Sat May  4 07:04:48 2019
# Process ID: 7832
# Current directory: C:/git/cecs_561/Lab_2/project_2
# Command line: vivado.exe -gui_launcher_event rodinguilauncherevent5312 C:\git\cecs_561\Lab_2\project_2\project_2.xpr
# Log file: C:/git/cecs_561/Lab_2/project_2/vivado.log
# Journal file: C:/git/cecs_561/Lab_2/project_2\vivado.jou
#-----------------------------------------------------------
Sourcing tcl script 'C:/Users/biggg/AppData/Roaming/Xilinx/Vivado/Vivado_init.tcl'
start_gui
open_project C:/git/cecs_561/Lab_2/project_2/project_2.xpr
Scanning sources...
Finished scanning sources
INFO: [IP_Flow 19-234] Refreshing IP repositories
INFO: [IP_Flow 19-1704] No user IP repositories specified
INFO: [IP_Flow 19-2313] Loaded Vivado IP repository 'C:/Xilinx/Vivado/2018.3/data/ip'.
open_project: Time (s): cpu = 00:00:17 ; elapsed = 00:00:09 . Memory (MB): peak = 813.492 ; gain = 224.828
update_compile_order -fileset sources_1
save_project_as FINAL C:/git/cecs_561/FINAL/HDL/FINAL -force
save_project_as: Time (s): cpu = 00:00:04 ; elapsed = 00:00:09 . Memory (MB): peak = 1160.977 ; gain = 0.000
import_files
INFO: [filemgmt 20-334] All file(s) are already imported in fileset: 'System_axi_gpio_0_0'
INFO: [filemgmt 20-348] Importing the appropriate files for fileset: 'System_axi_gpio_0_0'
INFO: [filemgmt 20-334] All file(s) are already imported in fileset: 'System_axi_gpio_0_1'
INFO: [filemgmt 20-348] Importing the appropriate files for fileset: 'System_axi_gpio_0_1'
INFO: [filemgmt 20-334] All file(s) are already imported in fileset: 'System_processing_system7_0_0'
INFO: [filemgmt 20-348] Importing the appropriate files for fileset: 'System_processing_system7_0_0'
INFO: [filemgmt 20-334] All file(s) are already imported in fileset: 'System_rst_ps7_0_100M_0'
INFO: [filemgmt 20-348] Importing the appropriate files for fileset: 'System_rst_ps7_0_100M_0'
INFO: [filemgmt 20-334] All file(s) are already imported in fileset: 'System_xbar_0'
INFO: [filemgmt 20-348] Importing the appropriate files for fileset: 'System_xbar_0'
INFO: [filemgmt 20-334] All file(s) are already imported in fileset: 'constrs_2'
INFO: [filemgmt 20-348] Importing the appropriate files for fileset: 'constrs_2'
INFO: [filemgmt 20-334] All file(s) are already imported in fileset: 'sources_1'
INFO: [filemgmt 20-348] Importing the appropriate files for fileset: 'sources_1'
set_property  ip_repo_paths  C:/git/cecs_561/FINAL/SIMULINK/hdl_prj/ipcore/MultiplyB_ip_v1_0 [current_project]
update_ip_catalog
INFO: [IP_Flow 19-234] Refreshing IP repositories
INFO: [IP_Flow 19-1700] Loaded user IP repository 'c:/git/cecs_561/FINAL/SIMULINK/hdl_prj/ipcore/MultiplyB_ip_v1_0'.
open_bd_design {C:/git/cecs_561/FINAL/HDL/FINAL/FINAL.srcs/sources_1/bd/System/System.bd}
Adding cell -- xilinx.com:ip:processing_system7:5.5 - processing_system7_0
Adding cell -- xilinx.com:ip:axi_gpio:2.0 - switches
Adding cell -- xilinx.com:ip:axi_interconnect:2.1 - ps7_0_axi_periph
Adding cell -- xilinx.com:ip:axi_crossbar:2.1 - xbar
Adding cell -- xilinx.com:ip:axi_protocol_converter:2.1 - auto_pc
INFO: [BD 41-434] Could not find an IP with XCI file by name: System_auto_pc_0 
Adding cell -- xilinx.com:ip:proc_sys_reset:5.0 - rst_ps7_0_100M
Adding cell -- xilinx.com:ip:axi_gpio:2.0 - buttons
Successfully read diagram <System> from BD file <C:/git/cecs_561/FINAL/HDL/FINAL/FINAL.srcs/sources_1/bd/System/System.bd>
INFO: [BD 41-433] 
Design successfully migrated to use XCI files...
Wrote  : <C:/git/cecs_561/FINAL/HDL/FINAL/FINAL.srcs/sources_1/bd/System/ui/bd_671e18af.ui> 
open_bd_design: Time (s): cpu = 00:00:08 ; elapsed = 00:00:08 . Memory (MB): peak = 1171.480 ; gain = 0.000
startgroup
create_bd_cell -type ip -vlnv xilinx.com:ip:MultiplyB_ip:1.0 MultiplyB_ip_0
endgroup
apply_bd_automation -rule xilinx.com:bd_rule:axi4 -config { Clk_master {/processing_system7_0/FCLK_CLK0 (100 MHz)} Clk_slave {Auto} Clk_xbar {/processing_system7_0/FCLK_CLK0 (100 MHz)} Master {/processing_system7_0/M_AXI_GP0} Slave {/MultiplyB_ip_0/AXI4_Lite} intc_ip {/ps7_0_axi_periph} master_apm {0}}  [get_bd_intf_pins MultiplyB_ip_0/AXI4_Lite]
</MultiplyB_ip_0/AXI4_Lite/reg0> is being mapped into </processing_system7_0/Data> at <0x43C00000 [ 64K ]>
CRITICAL WARNING: [PSU-1]  Parameter : PCW_UIPARAM_DDR_DQS_TO_CLK_DELAY_0 has negative value -0.050 . PS DDR interfaces might fail when entering negative DQS skew values. 
CRITICAL WARNING: [PSU-2]  Parameter : PCW_UIPARAM_DDR_DQS_TO_CLK_DELAY_1 has negative value -0.044 . PS DDR interfaces might fail when entering negative DQS skew values. 
CRITICAL WARNING: [PSU-3]  Parameter : PCW_UIPARAM_DDR_DQS_TO_CLK_DELAY_2 has negative value -0.035 . PS DDR interfaces might fail when entering negative DQS skew values. 
CRITICAL WARNING: [PSU-4]  Parameter : PCW_UIPARAM_DDR_DQS_TO_CLK_DELAY_3 has negative value -0.100 . PS DDR interfaces might fail when entering negative DQS skew values. 
CRITICAL WARNING: [PSU-1]  Parameter : PCW_UIPARAM_DDR_DQS_TO_CLK_DELAY_0 has negative value -0.050 . PS DDR interfaces might fail when entering negative DQS skew values. 
CRITICAL WARNING: [PSU-2]  Parameter : PCW_UIPARAM_DDR_DQS_TO_CLK_DELAY_1 has negative value -0.044 . PS DDR interfaces might fail when entering negative DQS skew values. 
CRITICAL WARNING: [PSU-3]  Parameter : PCW_UIPARAM_DDR_DQS_TO_CLK_DELAY_2 has negative value -0.035 . PS DDR interfaces might fail when entering negative DQS skew values. 
CRITICAL WARNING: [PSU-4]  Parameter : PCW_UIPARAM_DDR_DQS_TO_CLK_DELAY_3 has negative value -0.100 . PS DDR interfaces might fail when entering negative DQS skew values. 
WARNING: [IP_Flow 19-474] Invalid Parameter 'Component_Name'
CRITICAL WARNING: [PSU-1]  Parameter : PCW_UIPARAM_DDR_DQS_TO_CLK_DELAY_0 has negative value -0.050 . PS DDR interfaces might fail when entering negative DQS skew values. 
CRITICAL WARNING: [PSU-2]  Parameter : PCW_UIPARAM_DDR_DQS_TO_CLK_DELAY_1 has negative value -0.044 . PS DDR interfaces might fail when entering negative DQS skew values. 
CRITICAL WARNING: [PSU-3]  Parameter : PCW_UIPARAM_DDR_DQS_TO_CLK_DELAY_2 has negative value -0.035 . PS DDR interfaces might fail when entering negative DQS skew values. 
CRITICAL WARNING: [PSU-4]  Parameter : PCW_UIPARAM_DDR_DQS_TO_CLK_DELAY_3 has negative value -0.100 . PS DDR interfaces might fail when entering negative DQS skew values. 
startgroup
set_property -dict [list CONFIG.PCW_USE_S_AXI_HP0 {1} CONFIG.PCW_USE_DMA0 {1} CONFIG.PCW_USE_DMA1 {1}] [get_bd_cells processing_system7_0]
CRITICAL WARNING: [PSU-1]  Parameter : PCW_UIPARAM_DDR_DQS_TO_CLK_DELAY_0 has negative value -0.050 . PS DDR interfaces might fail when entering negative DQS skew values. 
CRITICAL WARNING: [PSU-2]  Parameter : PCW_UIPARAM_DDR_DQS_TO_CLK_DELAY_1 has negative value -0.044 . PS DDR interfaces might fail when entering negative DQS skew values. 
CRITICAL WARNING: [PSU-3]  Parameter : PCW_UIPARAM_DDR_DQS_TO_CLK_DELAY_2 has negative value -0.035 . PS DDR interfaces might fail when entering negative DQS skew values. 
CRITICAL WARNING: [PSU-4]  Parameter : PCW_UIPARAM_DDR_DQS_TO_CLK_DELAY_3 has negative value -0.100 . PS DDR interfaces might fail when entering negative DQS skew values. 
endgroup
connect_bd_intf_net [get_bd_intf_pins MultiplyB_ip_0/AXI4_Stream_Master] [get_bd_intf_pins processing_system7_0/DMA0_REQ]
connect_bd_intf_net [get_bd_intf_pins processing_system7_0/DMA0_ACK] [get_bd_intf_pins MultiplyB_ip_0/AXI4_Stream_Slave]
startgroup
apply_bd_automation -rule xilinx.com:bd_rule:clkrst -config {Clk "/processing_system7_0/FCLK_CLK0 (100 MHz)" }  [get_bd_pins processing_system7_0/DMA0_ACLK]
INFO: [BD 5-455] Automation on '/MultiplyB_ip_0/IPCORE_CLK' will not be run, since it is obsolete due to previously run automations
endgroup
validate_bd_design
ERROR: [BD 41-758] The following clock pins are not connected to a valid clock source: 
/processing_system7_0/S_AXI_HP0_ACLK
/processing_system7_0/DMA1_ACLK

ERROR: [Common 17-39] 'validate_bd_design' failed due to earlier errors.
validate_bd_design
ERROR: [BD 41-758] The following clock pins are not connected to a valid clock source: 
/processing_system7_0/S_AXI_HP0_ACLK
/processing_system7_0/DMA1_ACLK

ERROR: [Common 17-39] 'validate_bd_design' failed due to earlier errors.
connect_bd_net [get_bd_pins processing_system7_0/DMA1_ACLK] [get_bd_pins processing_system7_0/FCLK_CLK0]
connect_bd_net [get_bd_pins processing_system7_0/FCLK_CLK0] [get_bd_pins processing_system7_0/S_AXI_HP0_ACLK]
validate_bd_design
CRITICAL WARNING: [PSU-1]  Parameter : PCW_UIPARAM_DDR_DQS_TO_CLK_DELAY_0 has negative value -0.050 . PS DDR interfaces might fail when entering negative DQS skew values. 
CRITICAL WARNING: [PSU-2]  Parameter : PCW_UIPARAM_DDR_DQS_TO_CLK_DELAY_1 has negative value -0.044 . PS DDR interfaces might fail when entering negative DQS skew values. 
CRITICAL WARNING: [PSU-3]  Parameter : PCW_UIPARAM_DDR_DQS_TO_CLK_DELAY_2 has negative value -0.035 . PS DDR interfaces might fail when entering negative DQS skew values. 
CRITICAL WARNING: [PSU-4]  Parameter : PCW_UIPARAM_DDR_DQS_TO_CLK_DELAY_3 has negative value -0.100 . PS DDR interfaces might fail when entering negative DQS skew values. 
CRITICAL WARNING: [BD 41-237] Bus Interface property TDATA_NUM_BYTES does not match between /MultiplyB_ip_0/AXI4_Stream_Slave(4) and /processing_system7_0/DMA0_ACK(0)
CRITICAL WARNING: [BD 41-237] Bus Interface property TDATA_NUM_BYTES does not match between /processing_system7_0/DMA0_REQ(0) and /MultiplyB_ip_0/AXI4_Stream_Master(4)
WARNING: [BD 41-927] Following properties on pin /MultiplyB_ip_0/IPCORE_CLK have been updated from connected ip. They may not be synchronized with cell properties. You can set property on pin directly to confirm the value and resolve the warning.
	CLK_DOMAIN=System_processing_system7_0_0_FCLK_CLK0 
WARNING: [BD 41-927] Following properties on pin /MultiplyB_ip_0/AXI4_Lite_ACLK have been updated from connected ip. They may not be synchronized with cell properties. You can set property on pin directly to confirm the value and resolve the warning.
	CLK_DOMAIN=System_processing_system7_0_0_FCLK_CLK0 
WARNING: [BD 41-1771] Block interface /buttons/GPIO has associated board param 'GPIO_BOARD_INTERFACE', which is set to board part interface 'btns_4bits'. This interface is connected to an external interface /buttons, whose name 'buttons' does not match with the board interface name 'btns_4bits'.
This is a visual-only issue - this interface /buttons/GPIO will be connected to board interface 'btns_4bits'. If desired, please change the name of this port /buttons manually.
validate_bd_design: Time (s): cpu = 00:00:05 ; elapsed = 00:00:05 . Memory (MB): peak = 1192.793 ; gain = 0.000
CRITICAL WARNING: [PSU-1]  Parameter : PCW_UIPARAM_DDR_DQS_TO_CLK_DELAY_0 has negative value -0.050 . PS DDR interfaces might fail when entering negative DQS skew values. 
CRITICAL WARNING: [PSU-2]  Parameter : PCW_UIPARAM_DDR_DQS_TO_CLK_DELAY_1 has negative value -0.044 . PS DDR interfaces might fail when entering negative DQS skew values. 
CRITICAL WARNING: [PSU-3]  Parameter : PCW_UIPARAM_DDR_DQS_TO_CLK_DELAY_2 has negative value -0.035 . PS DDR interfaces might fail when entering negative DQS skew values. 
CRITICAL WARNING: [PSU-4]  Parameter : PCW_UIPARAM_DDR_DQS_TO_CLK_DELAY_3 has negative value -0.100 . PS DDR interfaces might fail when entering negative DQS skew values. 
WARNING: [IP_Flow 19-474] Invalid Parameter 'Component_Name'
CRITICAL WARNING: [PSU-1]  Parameter : PCW_UIPARAM_DDR_DQS_TO_CLK_DELAY_0 has negative value -0.050 . PS DDR interfaces might fail when entering negative DQS skew values. 
CRITICAL WARNING: [PSU-2]  Parameter : PCW_UIPARAM_DDR_DQS_TO_CLK_DELAY_1 has negative value -0.044 . PS DDR interfaces might fail when entering negative DQS skew values. 
CRITICAL WARNING: [PSU-3]  Parameter : PCW_UIPARAM_DDR_DQS_TO_CLK_DELAY_2 has negative value -0.035 . PS DDR interfaces might fail when entering negative DQS skew values. 
CRITICAL WARNING: [PSU-4]  Parameter : PCW_UIPARAM_DDR_DQS_TO_CLK_DELAY_3 has negative value -0.100 . PS DDR interfaces might fail when entering negative DQS skew values. 
startgroup
set_property -dict [list CONFIG.PCW_FPGA0_PERIPHERAL_FREQMHZ {50}] [get_bd_cells processing_system7_0]
CRITICAL WARNING: [PSU-1]  Parameter : PCW_UIPARAM_DDR_DQS_TO_CLK_DELAY_0 has negative value -0.050 . PS DDR interfaces might fail when entering negative DQS skew values. 
CRITICAL WARNING: [PSU-2]  Parameter : PCW_UIPARAM_DDR_DQS_TO_CLK_DELAY_1 has negative value -0.044 . PS DDR interfaces might fail when entering negative DQS skew values. 
CRITICAL WARNING: [PSU-3]  Parameter : PCW_UIPARAM_DDR_DQS_TO_CLK_DELAY_2 has negative value -0.035 . PS DDR interfaces might fail when entering negative DQS skew values. 
CRITICAL WARNING: [PSU-4]  Parameter : PCW_UIPARAM_DDR_DQS_TO_CLK_DELAY_3 has negative value -0.100 . PS DDR interfaces might fail when entering negative DQS skew values. 
endgroup
validate_bd_design
CRITICAL WARNING: [PSU-1]  Parameter : PCW_UIPARAM_DDR_DQS_TO_CLK_DELAY_0 has negative value -0.050 . PS DDR interfaces might fail when entering negative DQS skew values. 
CRITICAL WARNING: [PSU-2]  Parameter : PCW_UIPARAM_DDR_DQS_TO_CLK_DELAY_1 has negative value -0.044 . PS DDR interfaces might fail when entering negative DQS skew values. 
CRITICAL WARNING: [PSU-3]  Parameter : PCW_UIPARAM_DDR_DQS_TO_CLK_DELAY_2 has negative value -0.035 . PS DDR interfaces might fail when entering negative DQS skew values. 
CRITICAL WARNING: [PSU-4]  Parameter : PCW_UIPARAM_DDR_DQS_TO_CLK_DELAY_3 has negative value -0.100 . PS DDR interfaces might fail when entering negative DQS skew values. 
CRITICAL WARNING: [PSU-1]  Parameter : PCW_UIPARAM_DDR_DQS_TO_CLK_DELAY_0 has negative value -0.050 . PS DDR interfaces might fail when entering negative DQS skew values. 
CRITICAL WARNING: [PSU-2]  Parameter : PCW_UIPARAM_DDR_DQS_TO_CLK_DELAY_1 has negative value -0.044 . PS DDR interfaces might fail when entering negative DQS skew values. 
CRITICAL WARNING: [PSU-3]  Parameter : PCW_UIPARAM_DDR_DQS_TO_CLK_DELAY_2 has negative value -0.035 . PS DDR interfaces might fail when entering negative DQS skew values. 
CRITICAL WARNING: [PSU-4]  Parameter : PCW_UIPARAM_DDR_DQS_TO_CLK_DELAY_3 has negative value -0.100 . PS DDR interfaces might fail when entering negative DQS skew values. 
CRITICAL WARNING: [BD 41-237] Bus Interface property TDATA_NUM_BYTES does not match between /MultiplyB_ip_0/AXI4_Stream_Slave(4) and /processing_system7_0/DMA0_ACK(0)
CRITICAL WARNING: [BD 41-237] Bus Interface property TDATA_NUM_BYTES does not match between /processing_system7_0/DMA0_REQ(0) and /MultiplyB_ip_0/AXI4_Stream_Master(4)
WARNING: [BD 41-927] Following properties on pin /MultiplyB_ip_0/IPCORE_CLK have been updated from connected ip. They may not be synchronized with cell properties. You can set property on pin directly to confirm the value and resolve the warning.
	CLK_DOMAIN=System_processing_system7_0_0_FCLK_CLK0 
WARNING: [BD 41-927] Following properties on pin /MultiplyB_ip_0/AXI4_Lite_ACLK have been updated from connected ip. They may not be synchronized with cell properties. You can set property on pin directly to confirm the value and resolve the warning.
	CLK_DOMAIN=System_processing_system7_0_0_FCLK_CLK0 
WARNING: [BD 41-1771] Block interface /buttons/GPIO has associated board param 'GPIO_BOARD_INTERFACE', which is set to board part interface 'btns_4bits'. This interface is connected to an external interface /buttons, whose name 'buttons' does not match with the board interface name 'btns_4bits'.
This is a visual-only issue - this interface /buttons/GPIO will be connected to board interface 'btns_4bits'. If desired, please change the name of this port /buttons manually.
validate_bd_design: Time (s): cpu = 00:00:05 ; elapsed = 00:00:05 . Memory (MB): peak = 1212.230 ; gain = 0.000
validate_bd_design -force
CRITICAL WARNING: [BD 41-237] Bus Interface property TDATA_NUM_BYTES does not match between /MultiplyB_ip_0/AXI4_Stream_Slave(4) and /processing_system7_0/DMA0_ACK(0)
CRITICAL WARNING: [BD 41-237] Bus Interface property TDATA_NUM_BYTES does not match between /processing_system7_0/DMA0_REQ(0) and /MultiplyB_ip_0/AXI4_Stream_Master(4)
WARNING: [BD 41-927] Following properties on pin /MultiplyB_ip_0/IPCORE_CLK have been updated from connected ip. They may not be synchronized with cell properties. You can set property on pin directly to confirm the value and resolve the warning.
	CLK_DOMAIN=System_processing_system7_0_0_FCLK_CLK0 
WARNING: [BD 41-927] Following properties on pin /MultiplyB_ip_0/AXI4_Lite_ACLK have been updated from connected ip. They may not be synchronized with cell properties. You can set property on pin directly to confirm the value and resolve the warning.
	CLK_DOMAIN=System_processing_system7_0_0_FCLK_CLK0 
WARNING: [BD 41-1771] Block interface /buttons/GPIO has associated board param 'GPIO_BOARD_INTERFACE', which is set to board part interface 'btns_4bits'. This interface is connected to an external interface /buttons, whose name 'buttons' does not match with the board interface name 'btns_4bits'.
This is a visual-only issue - this interface /buttons/GPIO will be connected to board interface 'btns_4bits'. If desired, please change the name of this port /buttons manually.
delete_bd_objs [get_bd_intf_nets MultiplyB_ip_0_AXI4_Stream_Master]
apply_bd_automation -rule xilinx.com:bd_rule:axi4_s2mm -config {Dest_Intf "/processing_system7_0/S_AXI_HP0" Bridge_IP "New AXI DMA (High/Medium frequency transfer)" Clk_Stream "Auto" Clk_MM "Auto" }  [get_bd_intf_pins MultiplyB_ip_0/AXI4_Stream_Master]
</processing_system7_0/S_AXI_HP0/HP0_DDR_LOWOCM> is being mapped into </axi_dma/Data_S2MM> at <0x00000000 [ 1G ]>
apply_bd_automation -rule xilinx.com:bd_rule:axi4 -config { Clk_master {/processing_system7_0/FCLK_CLK0 (50 MHz)} Clk_slave {Auto} Clk_xbar {/processing_system7_0/FCLK_CLK0 (50 MHz)} Master {/processing_system7_0/M_AXI_GP0} Slave {/axi_dma/S_AXI_LITE} intc_ip {/ps7_0_axi_periph} master_apm {0}}  [get_bd_intf_pins axi_dma/S_AXI_LITE]
</axi_dma/S_AXI_LITE/Reg> is being mapped into </processing_system7_0/Data> at <0x40400000 [ 64K ]>
validate_bd_design
CRITICAL WARNING: [BD 41-237] Bus Interface property TDATA_NUM_BYTES does not match between /MultiplyB_ip_0/AXI4_Stream_Slave(4) and /processing_system7_0/DMA0_ACK(0)
WARNING: [BD 41-927] Following properties on pin /MultiplyB_ip_0/IPCORE_CLK have been updated from connected ip. They may not be synchronized with cell properties. You can set property on pin directly to confirm the value and resolve the warning.
	CLK_DOMAIN=System_processing_system7_0_0_FCLK_CLK0 
WARNING: [BD 41-927] Following properties on pin /MultiplyB_ip_0/AXI4_Lite_ACLK have been updated from connected ip. They may not be synchronized with cell properties. You can set property on pin directly to confirm the value and resolve the warning.
	CLK_DOMAIN=System_processing_system7_0_0_FCLK_CLK0 
WARNING: [BD 41-1771] Block interface /buttons/GPIO has associated board param 'GPIO_BOARD_INTERFACE', which is set to board part interface 'btns_4bits'. This interface is connected to an external interface /buttons, whose name 'buttons' does not match with the board interface name 'btns_4bits'.
This is a visual-only issue - this interface /buttons/GPIO will be connected to board interface 'btns_4bits'. If desired, please change the name of this port /buttons manually.
delete_bd_objs [get_bd_intf_nets processing_system7_0_DMA0_ACK]
validate_bd_design
WARNING: [BD 41-927] Following properties on pin /MultiplyB_ip_0/IPCORE_CLK have been updated from connected ip. They may not be synchronized with cell properties. You can set property on pin directly to confirm the value and resolve the warning.
	CLK_DOMAIN=System_processing_system7_0_0_FCLK_CLK0 
WARNING: [BD 41-927] Following properties on pin /MultiplyB_ip_0/AXI4_Lite_ACLK have been updated from connected ip. They may not be synchronized with cell properties. You can set property on pin directly to confirm the value and resolve the warning.
	CLK_DOMAIN=System_processing_system7_0_0_FCLK_CLK0 
CRITICAL WARNING: [BD 41-759] The input pins (listed below) are either not connected or do not have a source port, and they don't have a tie-off specified. These pins are tied-off to all 0's to avoid error in Implementation flow.
Please check your design and connect them as needed: 
/MultiplyB_ip_0/AXI4_Stream_Slave_TVALID

WARNING: [BD 41-1771] Block interface /buttons/GPIO has associated board param 'GPIO_BOARD_INTERFACE', which is set to board part interface 'btns_4bits'. This interface is connected to an external interface /buttons, whose name 'buttons' does not match with the board interface name 'btns_4bits'.
This is a visual-only issue - this interface /buttons/GPIO will be connected to board interface 'btns_4bits'. If desired, please change the name of this port /buttons manually.
CRITICAL WARNING: [PSU-1]  Parameter : PCW_UIPARAM_DDR_DQS_TO_CLK_DELAY_0 has negative value -0.050 . PS DDR interfaces might fail when entering negative DQS skew values. 
CRITICAL WARNING: [PSU-2]  Parameter : PCW_UIPARAM_DDR_DQS_TO_CLK_DELAY_1 has negative value -0.044 . PS DDR interfaces might fail when entering negative DQS skew values. 
CRITICAL WARNING: [PSU-3]  Parameter : PCW_UIPARAM_DDR_DQS_TO_CLK_DELAY_2 has negative value -0.035 . PS DDR interfaces might fail when entering negative DQS skew values. 
CRITICAL WARNING: [PSU-4]  Parameter : PCW_UIPARAM_DDR_DQS_TO_CLK_DELAY_3 has negative value -0.100 . PS DDR interfaces might fail when entering negative DQS skew values. 
WARNING: [IP_Flow 19-474] Invalid Parameter 'Component_Name'
startgroup
set_property -dict [list CONFIG.PCW_USE_DMA1 {0}] [get_bd_cells processing_system7_0]
WARNING: [BD 41-1684] Pin /processing_system7_0/DMA1_ACLK is now disabled. All connections to this pin have been removed. 
endgroup
CRITICAL WARNING: [PSU-1]  Parameter : PCW_UIPARAM_DDR_DQS_TO_CLK_DELAY_0 has negative value -0.050 . PS DDR interfaces might fail when entering negative DQS skew values. 
CRITICAL WARNING: [PSU-2]  Parameter : PCW_UIPARAM_DDR_DQS_TO_CLK_DELAY_1 has negative value -0.044 . PS DDR interfaces might fail when entering negative DQS skew values. 
CRITICAL WARNING: [PSU-3]  Parameter : PCW_UIPARAM_DDR_DQS_TO_CLK_DELAY_2 has negative value -0.035 . PS DDR interfaces might fail when entering negative DQS skew values. 
CRITICAL WARNING: [PSU-4]  Parameter : PCW_UIPARAM_DDR_DQS_TO_CLK_DELAY_3 has negative value -0.100 . PS DDR interfaces might fail when entering negative DQS skew values. 
WARNING: [IP_Flow 19-474] Invalid Parameter 'Component_Name'
startgroup
set_property -dict [list CONFIG.PCW_USE_DMA1 {0}] [get_bd_cells processing_system7_0]
endgroup
connect_bd_intf_net [get_bd_intf_pins MultiplyB_ip_0/AXI4_Stream_Slave] [get_bd_intf_pins processing_system7_0/DMA0_ACK]
validate_bd_design
CRITICAL WARNING: [BD 41-237] Bus Interface property TDATA_NUM_BYTES does not match between /MultiplyB_ip_0/AXI4_Stream_Slave(4) and /processing_system7_0/DMA0_ACK(0)
WARNING: [BD 41-927] Following properties on pin /MultiplyB_ip_0/IPCORE_CLK have been updated from connected ip. They may not be synchronized with cell properties. You can set property on pin directly to confirm the value and resolve the warning.
	CLK_DOMAIN=System_processing_system7_0_0_FCLK_CLK0 
WARNING: [BD 41-927] Following properties on pin /MultiplyB_ip_0/AXI4_Lite_ACLK have been updated from connected ip. They may not be synchronized with cell properties. You can set property on pin directly to confirm the value and resolve the warning.
	CLK_DOMAIN=System_processing_system7_0_0_FCLK_CLK0 
WARNING: [BD 41-1771] Block interface /buttons/GPIO has associated board param 'GPIO_BOARD_INTERFACE', which is set to board part interface 'btns_4bits'. This interface is connected to an external interface /buttons, whose name 'buttons' does not match with the board interface name 'btns_4bits'.
This is a visual-only issue - this interface /buttons/GPIO will be connected to board interface 'btns_4bits'. If desired, please change the name of this port /buttons manually.
validate_bd_design -force
CRITICAL WARNING: [BD 41-237] Bus Interface property TDATA_NUM_BYTES does not match between /MultiplyB_ip_0/AXI4_Stream_Slave(4) and /processing_system7_0/DMA0_ACK(0)
WARNING: [BD 41-927] Following properties on pin /MultiplyB_ip_0/IPCORE_CLK have been updated from connected ip. They may not be synchronized with cell properties. You can set property on pin directly to confirm the value and resolve the warning.
	CLK_DOMAIN=System_processing_system7_0_0_FCLK_CLK0 
WARNING: [BD 41-927] Following properties on pin /MultiplyB_ip_0/AXI4_Lite_ACLK have been updated from connected ip. They may not be synchronized with cell properties. You can set property on pin directly to confirm the value and resolve the warning.
	CLK_DOMAIN=System_processing_system7_0_0_FCLK_CLK0 
WARNING: [BD 41-1771] Block interface /buttons/GPIO has associated board param 'GPIO_BOARD_INTERFACE', which is set to board part interface 'btns_4bits'. This interface is connected to an external interface /buttons, whose name 'buttons' does not match with the board interface name 'btns_4bits'.
This is a visual-only issue - this interface /buttons/GPIO will be connected to board interface 'btns_4bits'. If desired, please change the name of this port /buttons manually.
delete_bd_objs [get_bd_intf_nets processing_system7_0_DMA0_ACK]
startgroup
set_property -dict [list CONFIG.c_include_mm2s {1}] [get_bd_cells axi_dma]
endgroup
apply_bd_automation -rule xilinx.com:bd_rule:axi4 -config { Clk_master {Auto} Clk_slave {/processing_system7_0/FCLK_CLK0 (50 MHz)} Clk_xbar {/processing_system7_0/FCLK_CLK0 (50 MHz)} Master {/axi_dma/M_AXI_MM2S} Slave {/processing_system7_0/S_AXI_HP0} intc_ip {/axi_mem_intercon} master_apm {0}}  [get_bd_intf_pins axi_dma/M_AXI_MM2S]
</processing_system7_0/S_AXI_HP0/HP0_DDR_LOWOCM> is being mapped into </axi_dma/Data_MM2S> at <0x00000000 [ 1G ]>
CRITICAL WARNING: [PSU-1]  Parameter : PCW_UIPARAM_DDR_DQS_TO_CLK_DELAY_0 has negative value -0.050 . PS DDR interfaces might fail when entering negative DQS skew values. 
CRITICAL WARNING: [PSU-2]  Parameter : PCW_UIPARAM_DDR_DQS_TO_CLK_DELAY_1 has negative value -0.044 . PS DDR interfaces might fail when entering negative DQS skew values. 
CRITICAL WARNING: [PSU-3]  Parameter : PCW_UIPARAM_DDR_DQS_TO_CLK_DELAY_2 has negative value -0.035 . PS DDR interfaces might fail when entering negative DQS skew values. 
CRITICAL WARNING: [PSU-4]  Parameter : PCW_UIPARAM_DDR_DQS_TO_CLK_DELAY_3 has negative value -0.100 . PS DDR interfaces might fail when entering negative DQS skew values. 
WARNING: [IP_Flow 19-474] Invalid Parameter 'Component_Name'
startgroup
set_property -dict [list CONFIG.PCW_USE_DMA0 {0}] [get_bd_cells processing_system7_0]
WARNING: [BD 41-1684] Pin /processing_system7_0/DMA0_ACLK is now disabled. All connections to this pin have been removed. 
endgroup
validate_bd_design
WARNING: [BD 41-927] Following properties on pin /MultiplyB_ip_0/IPCORE_CLK have been updated from connected ip. They may not be synchronized with cell properties. You can set property on pin directly to confirm the value and resolve the warning.
	CLK_DOMAIN=System_processing_system7_0_0_FCLK_CLK0 
WARNING: [BD 41-927] Following properties on pin /MultiplyB_ip_0/AXI4_Lite_ACLK have been updated from connected ip. They may not be synchronized with cell properties. You can set property on pin directly to confirm the value and resolve the warning.
	CLK_DOMAIN=System_processing_system7_0_0_FCLK_CLK0 
CRITICAL WARNING: [BD 41-759] The input pins (listed below) are either not connected or do not have a source port, and they don't have a tie-off specified. These pins are tied-off to all 0's to avoid error in Implementation flow.
Please check your design and connect them as needed: 
/MultiplyB_ip_0/AXI4_Stream_Slave_TVALID

WARNING: [BD 41-1771] Block interface /buttons/GPIO has associated board param 'GPIO_BOARD_INTERFACE', which is set to board part interface 'btns_4bits'. This interface is connected to an external interface /buttons, whose name 'buttons' does not match with the board interface name 'btns_4bits'.
This is a visual-only issue - this interface /buttons/GPIO will be connected to board interface 'btns_4bits'. If desired, please change the name of this port /buttons manually.
connect_bd_intf_net [get_bd_intf_pins axi_dma/M_AXIS_MM2S] [get_bd_intf_pins MultiplyB_ip_0/AXI4_Stream_Slave]
validate_bd_design
WARNING: [BD 41-927] Following properties on pin /MultiplyB_ip_0/IPCORE_CLK have been updated from connected ip. They may not be synchronized with cell properties. You can set property on pin directly to confirm the value and resolve the warning.
	CLK_DOMAIN=System_processing_system7_0_0_FCLK_CLK0 
WARNING: [BD 41-927] Following properties on pin /MultiplyB_ip_0/AXI4_Lite_ACLK have been updated from connected ip. They may not be synchronized with cell properties. You can set property on pin directly to confirm the value and resolve the warning.
	CLK_DOMAIN=System_processing_system7_0_0_FCLK_CLK0 
WARNING: [BD 41-1771] Block interface /buttons/GPIO has associated board param 'GPIO_BOARD_INTERFACE', which is set to board part interface 'btns_4bits'. This interface is connected to an external interface /buttons, whose name 'buttons' does not match with the board interface name 'btns_4bits'.
This is a visual-only issue - this interface /buttons/GPIO will be connected to board interface 'btns_4bits'. If desired, please change the name of this port /buttons manually.
delete_bd_objs [get_bd_intf_nets ps7_0_axi_periph_M00_AXI] [get_bd_intf_nets switches_GPIO] [get_bd_cells switches]
delete_bd_objs [get_bd_intf_nets ps7_0_axi_periph_M01_AXI] [get_bd_intf_nets buttons_GPIO] [get_bd_cells buttons]
delete_bd_objs [get_bd_intf_ports buttons]
delete_bd_objs [get_bd_intf_ports switches]
startgroup
set_property -dict [list CONFIG.NUM_MI {2}] [get_bd_cells ps7_0_axi_periph]
delete_bd_objs [get_bd_intf_nets ps7_0_axi_periph_M02_AXI] [get_bd_intf_nets ps7_0_axi_periph_M03_AXI]
endgroup
startgroup
apply_bd_automation -rule xilinx.com:bd_rule:axi4 -config { Clk_master {/processing_system7_0/FCLK_CLK0 (50 MHz)} Clk_slave {/processing_system7_0/FCLK_CLK0 (50 MHz)} Clk_xbar {/processing_system7_0/FCLK_CLK0 (50 MHz)} Master {/processing_system7_0/M_AXI_GP0} Slave {/MultiplyB_ip_0/AXI4_Lite} intc_ip {/ps7_0_axi_periph} master_apm {0}}  [get_bd_intf_pins MultiplyB_ip_0/AXI4_Lite]
</MultiplyB_ip_0/AXI4_Lite/reg0> is being mapped into </processing_system7_0/Data> at <0x43C00000 [ 64K ]>
apply_bd_automation -rule xilinx.com:bd_rule:axi4 -config { Clk_master {/processing_system7_0/FCLK_CLK0 (50 MHz)} Clk_slave {/processing_system7_0/FCLK_CLK0 (50 MHz)} Clk_xbar {/processing_system7_0/FCLK_CLK0 (50 MHz)} Master {/processing_system7_0/M_AXI_GP0} Slave {/axi_dma/S_AXI_LITE} intc_ip {/ps7_0_axi_periph} master_apm {0}}  [get_bd_intf_pins axi_dma/S_AXI_LITE]
</axi_dma/S_AXI_LITE/Reg> is being mapped into </processing_system7_0/Data> at <0x40400000 [ 64K ]>
endgroup
validate_bd_design
WARNING: [BD 41-927] Following properties on pin /MultiplyB_ip_0/IPCORE_CLK have been updated from connected ip. They may not be synchronized with cell properties. You can set property on pin directly to confirm the value and resolve the warning.
	CLK_DOMAIN=System_processing_system7_0_0_FCLK_CLK0 
WARNING: [BD 41-927] Following properties on pin /MultiplyB_ip_0/AXI4_Lite_ACLK have been updated from connected ip. They may not be synchronized with cell properties. You can set property on pin directly to confirm the value and resolve the warning.
	CLK_DOMAIN=System_processing_system7_0_0_FCLK_CLK0 
save_bd_design
Wrote  : <C:\git\cecs_561\FINAL\HDL\FINAL\FINAL.srcs\sources_1\bd\System\System.bd> 
Wrote  : <C:/git/cecs_561/FINAL/HDL/FINAL/FINAL.srcs/sources_1/bd/System/ui/bd_671e18af.ui> 
reset_run synth_1
launch_runs impl_1 -to_step write_bitstream -jobs 4
INFO: [BD 41-1662] The design 'System.bd' is already validated. Therefore parameter propagation will not be re-run.
WARNING: [BD 41-235] Width mismatch when connecting pin: '/axi_mem_intercon/m00_couplers/auto_pc/m_axi_bid'(1) to net 'auto_pc_to_m00_couplers_BID'(6) - Only lower order bits will be connected.
WARNING: [BD 41-235] Width mismatch when connecting pin: '/axi_mem_intercon/m00_couplers/auto_pc/m_axi_rid'(1) to net 'auto_pc_to_m00_couplers_RID'(6) - Only lower order bits will be connected.
WARNING: [BD 41-235] Width mismatch when connecting pin: '/processing_system7_0/S_AXI_HP0_WID'(6) to net 'axi_mem_intercon_M00_AXI_WID'(1) - Only lower order bits will be connected.
WARNING: [BD 41-235] Width mismatch when connecting pin: '/processing_system7_0/S_AXI_HP0_ARID'(6) to net 'axi_mem_intercon_M00_AXI_ARID'(1) - Only lower order bits will be connected.
WARNING: [BD 41-235] Width mismatch when connecting pin: '/processing_system7_0/S_AXI_HP0_AWID'(6) to net 'axi_mem_intercon_M00_AXI_AWID'(1) - Only lower order bits will be connected.
VHDL Output written to : C:/git/cecs_561/FINAL/HDL/FINAL/FINAL.srcs/sources_1/bd/System/synth/System.v
WARNING: [BD 41-235] Width mismatch when connecting pin: '/axi_mem_intercon/m00_couplers/auto_pc/m_axi_bid'(1) to net 'auto_pc_to_m00_couplers_BID'(6) - Only lower order bits will be connected.
WARNING: [BD 41-235] Width mismatch when connecting pin: '/axi_mem_intercon/m00_couplers/auto_pc/m_axi_rid'(1) to net 'auto_pc_to_m00_couplers_RID'(6) - Only lower order bits will be connected.
WARNING: [BD 41-235] Width mismatch when connecting pin: '/processing_system7_0/S_AXI_HP0_WID'(6) to net 'axi_mem_intercon_M00_AXI_WID'(1) - Only lower order bits will be connected.
WARNING: [BD 41-235] Width mismatch when connecting pin: '/processing_system7_0/S_AXI_HP0_ARID'(6) to net 'axi_mem_intercon_M00_AXI_ARID'(1) - Only lower order bits will be connected.
WARNING: [BD 41-235] Width mismatch when connecting pin: '/processing_system7_0/S_AXI_HP0_AWID'(6) to net 'axi_mem_intercon_M00_AXI_AWID'(1) - Only lower order bits will be connected.
VHDL Output written to : C:/git/cecs_561/FINAL/HDL/FINAL/FINAL.srcs/sources_1/bd/System/sim/System.v
VHDL Output written to : C:/git/cecs_561/FINAL/HDL/FINAL/FINAL.srcs/sources_1/bd/System/hdl/System_wrapper.v
INFO: [BD 41-1029] Generation completed for the IP Integrator block processing_system7_0 .
INFO: [BD 41-1029] Generation completed for the IP Integrator block ps7_0_axi_periph/xbar .
INFO: [BD 41-1029] Generation completed for the IP Integrator block rst_ps7_0_100M .
WARNING: [IP_Flow 19-4994] Overwriting existing constraint file 'c:/git/cecs_561/FINAL/HDL/FINAL/FINAL.srcs/sources_1/bd/System/ip/System_auto_pc_0/System_auto_pc_0_ooc.xdc'
INFO: [BD 41-1029] Generation completed for the IP Integrator block ps7_0_axi_periph/s00_couplers/auto_pc .
INFO: [BD 41-1029] Generation completed for the IP Integrator block MultiplyB_ip_0 .
INFO: [BD 41-1029] Generation completed for the IP Integrator block axi_dma .
INFO: [BD 41-1029] Generation completed for the IP Integrator block axi_mem_intercon/xbar .
WARNING: [IP_Flow 19-4994] Overwriting existing constraint file 'c:/git/cecs_561/FINAL/HDL/FINAL/FINAL.srcs/sources_1/bd/System/ip/System_auto_us_0/System_auto_us_0_ooc.xdc'
INFO: [BD 41-1029] Generation completed for the IP Integrator block axi_mem_intercon/s00_couplers/auto_us .
WARNING: [IP_Flow 19-4994] Overwriting existing constraint file 'c:/git/cecs_561/FINAL/HDL/FINAL/FINAL.srcs/sources_1/bd/System/ip/System_auto_us_1/System_auto_us_1_ooc.xdc'
INFO: [BD 41-1029] Generation completed for the IP Integrator block axi_mem_intercon/s01_couplers/auto_us .
WARNING: [IP_Flow 19-4994] Overwriting existing constraint file 'c:/git/cecs_561/FINAL/HDL/FINAL/FINAL.srcs/sources_1/bd/System/ip/System_auto_pc_1/System_auto_pc_1_ooc.xdc'
INFO: [BD 41-1029] Generation completed for the IP Integrator block axi_mem_intercon/m00_couplers/auto_pc .
Exporting to file C:/git/cecs_561/FINAL/HDL/FINAL/FINAL.srcs/sources_1/bd/System/hw_handoff/System.hwh
Generated Block Design Tcl file C:/git/cecs_561/FINAL/HDL/FINAL/FINAL.srcs/sources_1/bd/System/hw_handoff/System_bd.tcl
Generated Hardware Definition File C:/git/cecs_561/FINAL/HDL/FINAL/FINAL.srcs/sources_1/bd/System/synth/System.hwdef
[Sat May  4 07:24:57 2019] Launched System_processing_system7_0_0_synth_1, System_rst_ps7_0_100M_0_synth_1, System_xbar_0_synth_1, System_axi_dma_0_synth_1, System_auto_pc_0_synth_1, System_MultiplyB_ip_0_0_synth_1, System_auto_us_1_synth_1, System_xbar_1_synth_1, System_auto_us_0_synth_1, System_auto_pc_1_synth_1, synth_1...
Run output will be captured here:
System_processing_system7_0_0_synth_1: C:/git/cecs_561/FINAL/HDL/FINAL/FINAL.runs/System_processing_system7_0_0_synth_1/runme.log
System_rst_ps7_0_100M_0_synth_1: C:/git/cecs_561/FINAL/HDL/FINAL/FINAL.runs/System_rst_ps7_0_100M_0_synth_1/runme.log
System_xbar_0_synth_1: C:/git/cecs_561/FINAL/HDL/FINAL/FINAL.runs/System_xbar_0_synth_1/runme.log
System_axi_dma_0_synth_1: C:/git/cecs_561/FINAL/HDL/FINAL/FINAL.runs/System_axi_dma_0_synth_1/runme.log
System_auto_pc_0_synth_1: C:/git/cecs_561/FINAL/HDL/FINAL/FINAL.runs/System_auto_pc_0_synth_1/runme.log
System_MultiplyB_ip_0_0_synth_1: C:/git/cecs_561/FINAL/HDL/FINAL/FINAL.runs/System_MultiplyB_ip_0_0_synth_1/runme.log
System_auto_us_1_synth_1: C:/git/cecs_561/FINAL/HDL/FINAL/FINAL.runs/System_auto_us_1_synth_1/runme.log
System_xbar_1_synth_1: C:/git/cecs_561/FINAL/HDL/FINAL/FINAL.runs/System_xbar_1_synth_1/runme.log
System_auto_us_0_synth_1: C:/git/cecs_561/FINAL/HDL/FINAL/FINAL.runs/System_auto_us_0_synth_1/runme.log
System_auto_pc_1_synth_1: C:/git/cecs_561/FINAL/HDL/FINAL/FINAL.runs/System_auto_pc_1_synth_1/runme.log
synth_1: C:/git/cecs_561/FINAL/HDL/FINAL/FINAL.runs/synth_1/runme.log
[Sat May  4 07:24:58 2019] Launched impl_1...
Run output will be captured here: C:/git/cecs_561/FINAL/HDL/FINAL/FINAL.runs/impl_1/runme.log
launch_runs: Time (s): cpu = 00:00:25 ; elapsed = 00:00:29 . Memory (MB): peak = 1440.930 ; gain = 140.371
reset_run impl_1 -prev_step 
reset_run synth_1
launch_runs synth_1 -jobs 4
[Sat May  4 08:41:18 2019] Launched synth_1...
Run output will be captured here: C:/git/cecs_561/FINAL/HDL/FINAL/FINAL.runs/synth_1/runme.log
export_ip_user_files -of_objects  [get_files C:/git/cecs_561/FINAL/HDL/FINAL/FINAL.srcs/constrs_2/new/System_wrapper.xdc] -no_script -reset -force -quiet
remove_files  -fileset constrs_2 C:/git/cecs_561/FINAL/HDL/FINAL/FINAL.srcs/constrs_2/new/System_wrapper.xdc
reset_run synth_1
launch_runs synth_1 -jobs 4
[Sat May  4 08:42:10 2019] Launched synth_1...
Run output will be captured here: C:/git/cecs_561/FINAL/HDL/FINAL/FINAL.runs/synth_1/runme.log
launch_runs impl_1 -jobs 4
[Sat May  4 08:43:01 2019] Launched impl_1...
Run output will be captured here: C:/git/cecs_561/FINAL/HDL/FINAL/FINAL.runs/impl_1/runme.log
reset_run impl_1 -prev_step 
startgroup
endgroup
startgroup
set_property -dict [list CONFIG.c_include_s2mm {0} CONFIG.c_include_s2mm_dre {0} CONFIG.c_s2mm_burst_size {16}] [get_bd_cells axi_dma]
WARNING: [BD 41-1684] Pin /axi_dma/m_axi_s2mm_aclk is now disabled. All connections to this pin have been removed. 
delete_bd_objs [get_bd_intf_nets axi_dma_M_AXI_S2MM] [get_bd_intf_nets MultiplyB_ip_0_AXI4_Stream_Master]
endgroup
startgroup
set_property -dict [list CONFIG.NUM_SI {1} CONFIG.NUM_MI {1}] [get_bd_cells axi_mem_intercon]
delete_bd_objs [get_bd_intf_nets axi_dma_M_AXI_MM2S]
endgroup
apply_bd_automation -rule xilinx.com:bd_rule:axi4 -config { Clk_master {/processing_system7_0/FCLK_CLK0 (50 MHz)} Clk_slave {/processing_system7_0/FCLK_CLK0 (50 MHz)} Clk_xbar {/processing_system7_0/FCLK_CLK0 (50 MHz)} Master {/axi_dma/M_AXI_MM2S} Slave {/processing_system7_0/S_AXI_HP0} intc_ip {/axi_mem_intercon} master_apm {0}}  [get_bd_intf_pins axi_dma/M_AXI_MM2S]
validate_bd_design
WARNING: [BD 41-927] Following properties on pin /MultiplyB_ip_0/IPCORE_CLK have been updated from connected ip. They may not be synchronized with cell properties. You can set property on pin directly to confirm the value and resolve the warning.
	CLK_DOMAIN=System_processing_system7_0_0_FCLK_CLK0 
WARNING: [BD 41-927] Following properties on pin /MultiplyB_ip_0/AXI4_Lite_ACLK have been updated from connected ip. They may not be synchronized with cell properties. You can set property on pin directly to confirm the value and resolve the warning.
	CLK_DOMAIN=System_processing_system7_0_0_FCLK_CLK0 
CRITICAL WARNING: [PSU-1]  Parameter : PCW_UIPARAM_DDR_DQS_TO_CLK_DELAY_0 has negative value -0.050 . PS DDR interfaces might fail when entering negative DQS skew values. 
CRITICAL WARNING: [PSU-2]  Parameter : PCW_UIPARAM_DDR_DQS_TO_CLK_DELAY_1 has negative value -0.044 . PS DDR interfaces might fail when entering negative DQS skew values. 
CRITICAL WARNING: [PSU-3]  Parameter : PCW_UIPARAM_DDR_DQS_TO_CLK_DELAY_2 has negative value -0.035 . PS DDR interfaces might fail when entering negative DQS skew values. 
CRITICAL WARNING: [PSU-4]  Parameter : PCW_UIPARAM_DDR_DQS_TO_CLK_DELAY_3 has negative value -0.100 . PS DDR interfaces might fail when entering negative DQS skew values. 
WARNING: [IP_Flow 19-474] Invalid Parameter 'Component_Name'
startgroup
set_property -dict [list CONFIG.PCW_USE_DMA0 {1}] [get_bd_cells processing_system7_0]
endgroup
undo
INFO: [Common 17-17] undo 'endgroup'
INFO: [Common 17-17] undo 'set_property -dict [list CONFIG.PCW_USE_DMA0 {1}] [get_bd_cells processing_system7_0]'
INFO: [Common 17-17] undo 'startgroup'
CRITICAL WARNING: [PSU-1]  Parameter : PCW_UIPARAM_DDR_DQS_TO_CLK_DELAY_0 has negative value -0.050 . PS DDR interfaces might fail when entering negative DQS skew values. 
CRITICAL WARNING: [PSU-2]  Parameter : PCW_UIPARAM_DDR_DQS_TO_CLK_DELAY_1 has negative value -0.044 . PS DDR interfaces might fail when entering negative DQS skew values. 
CRITICAL WARNING: [PSU-3]  Parameter : PCW_UIPARAM_DDR_DQS_TO_CLK_DELAY_2 has negative value -0.035 . PS DDR interfaces might fail when entering negative DQS skew values. 
CRITICAL WARNING: [PSU-4]  Parameter : PCW_UIPARAM_DDR_DQS_TO_CLK_DELAY_3 has negative value -0.100 . PS DDR interfaces might fail when entering negative DQS skew values. 
WARNING: [IP_Flow 19-474] Invalid Parameter 'Component_Name'
startgroup
set_property -dict [list CONFIG.PCW_USE_DMA0 {1}] [get_bd_cells processing_system7_0]
endgroup
connect_bd_intf_net [get_bd_intf_pins MultiplyB_ip_0/AXI4_Stream_Master] [get_bd_intf_pins processing_system7_0/DMA0_REQ]
validate_bd_design
ERROR: [BD 41-758] The following clock pins are not connected to a valid clock source: 
/processing_system7_0/DMA0_ACLK

ERROR: [Common 17-39] 'validate_bd_design' failed due to earlier errors.
connect_bd_net [get_bd_pins processing_system7_0/DMA0_ACLK] [get_bd_pins processing_system7_0/FCLK_CLK0]
validate_bd_design
CRITICAL WARNING: [BD 41-237] Bus Interface property TDATA_NUM_BYTES does not match between /processing_system7_0/DMA0_REQ(0) and /MultiplyB_ip_0/AXI4_Stream_Master(4)
WARNING: [BD 41-927] Following properties on pin /MultiplyB_ip_0/IPCORE_CLK have been updated from connected ip. They may not be synchronized with cell properties. You can set property on pin directly to confirm the value and resolve the warning.
	CLK_DOMAIN=System_processing_system7_0_0_FCLK_CLK0 
WARNING: [BD 41-927] Following properties on pin /MultiplyB_ip_0/AXI4_Lite_ACLK have been updated from connected ip. They may not be synchronized with cell properties. You can set property on pin directly to confirm the value and resolve the warning.
	CLK_DOMAIN=System_processing_system7_0_0_FCLK_CLK0 
CRITICAL WARNING: [PSU-1]  Parameter : PCW_UIPARAM_DDR_DQS_TO_CLK_DELAY_0 has negative value -0.050 . PS DDR interfaces might fail when entering negative DQS skew values. 
CRITICAL WARNING: [PSU-2]  Parameter : PCW_UIPARAM_DDR_DQS_TO_CLK_DELAY_1 has negative value -0.044 . PS DDR interfaces might fail when entering negative DQS skew values. 
CRITICAL WARNING: [PSU-3]  Parameter : PCW_UIPARAM_DDR_DQS_TO_CLK_DELAY_2 has negative value -0.035 . PS DDR interfaces might fail when entering negative DQS skew values. 
CRITICAL WARNING: [PSU-4]  Parameter : PCW_UIPARAM_DDR_DQS_TO_CLK_DELAY_3 has negative value -0.100 . PS DDR interfaces might fail when entering negative DQS skew values. 
WARNING: [IP_Flow 19-474] Invalid Parameter 'Component_Name'
validate_bd_design -force
CRITICAL WARNING: [BD 41-237] Bus Interface property TDATA_NUM_BYTES does not match between /processing_system7_0/DMA0_REQ(0) and /MultiplyB_ip_0/AXI4_Stream_Master(4)
WARNING: [BD 41-927] Following properties on pin /MultiplyB_ip_0/IPCORE_CLK have been updated from connected ip. They may not be synchronized with cell properties. You can set property on pin directly to confirm the value and resolve the warning.
	CLK_DOMAIN=System_processing_system7_0_0_FCLK_CLK0 
WARNING: [BD 41-927] Following properties on pin /MultiplyB_ip_0/AXI4_Lite_ACLK have been updated from connected ip. They may not be synchronized with cell properties. You can set property on pin directly to confirm the value and resolve the warning.
	CLK_DOMAIN=System_processing_system7_0_0_FCLK_CLK0 
CRITICAL WARNING: [PSU-1]  Parameter : PCW_UIPARAM_DDR_DQS_TO_CLK_DELAY_0 has negative value -0.050 . PS DDR interfaces might fail when entering negative DQS skew values. 
CRITICAL WARNING: [PSU-2]  Parameter : PCW_UIPARAM_DDR_DQS_TO_CLK_DELAY_1 has negative value -0.044 . PS DDR interfaces might fail when entering negative DQS skew values. 
CRITICAL WARNING: [PSU-3]  Parameter : PCW_UIPARAM_DDR_DQS_TO_CLK_DELAY_2 has negative value -0.035 . PS DDR interfaces might fail when entering negative DQS skew values. 
CRITICAL WARNING: [PSU-4]  Parameter : PCW_UIPARAM_DDR_DQS_TO_CLK_DELAY_3 has negative value -0.100 . PS DDR interfaces might fail when entering negative DQS skew values. 
WARNING: [IP_Flow 19-474] Invalid Parameter 'Component_Name'
reset_run System_axi_dma_0_synth_1
save_bd_design
Wrote  : <C:\git\cecs_561\FINAL\HDL\FINAL\FINAL.srcs\sources_1\bd\System\System.bd> 
Wrote  : <C:/git/cecs_561/FINAL/HDL/FINAL/FINAL.srcs/sources_1/bd/System/ui/bd_671e18af.ui> 
reset_run synth_1
launch_runs synth_1 -jobs 4
INFO: [BD 41-1662] The design 'System.bd' is already validated. Therefore parameter propagation will not be re-run.
VHDL Output written to : C:/git/cecs_561/FINAL/HDL/FINAL/FINAL.srcs/sources_1/bd/System/synth/System.v
VHDL Output written to : C:/git/cecs_561/FINAL/HDL/FINAL/FINAL.srcs/sources_1/bd/System/sim/System.v
VHDL Output written to : C:/git/cecs_561/FINAL/HDL/FINAL/FINAL.srcs/sources_1/bd/System/hdl/System_wrapper.v
INFO: [BD 41-1029] Generation completed for the IP Integrator block processing_system7_0 .
INFO: [BD 41-1029] Generation completed for the IP Integrator block ps7_0_axi_periph/xbar .
INFO: [BD 41-1029] Generation completed for the IP Integrator block rst_ps7_0_100M .
INFO: [BD 41-1029] Generation completed for the IP Integrator block MultiplyB_ip_0 .
INFO: [BD 41-1029] Generation completed for the IP Integrator block axi_dma .
WARNING: [IP_Flow 19-4994] Overwriting existing constraint file 'c:/git/cecs_561/FINAL/HDL/FINAL/FINAL.srcs/sources_1/bd/System/ip/System_auto_pc_0/System_auto_pc_0_ooc.xdc'
INFO: [BD 41-1029] Generation completed for the IP Integrator block ps7_0_axi_periph/s00_couplers/auto_pc .
WARNING: [IP_Flow 19-4994] Overwriting existing constraint file 'c:/git/cecs_561/FINAL/HDL/FINAL/FINAL.srcs/sources_1/bd/System/ip/System_auto_pc_1/System_auto_pc_1_ooc.xdc'
INFO: [BD 41-1029] Generation completed for the IP Integrator block axi_mem_intercon/s00_couplers/auto_pc .
WARNING: [IP_Flow 19-4994] Overwriting existing constraint file 'c:/git/cecs_561/FINAL/HDL/FINAL/FINAL.srcs/sources_1/bd/System/ip/System_auto_us_0/System_auto_us_0_ooc.xdc'
INFO: [BD 41-1029] Generation completed for the IP Integrator block axi_mem_intercon/s00_couplers/auto_us .
Exporting to file C:/git/cecs_561/FINAL/HDL/FINAL/FINAL.srcs/sources_1/bd/System/hw_handoff/System.hwh
Generated Block Design Tcl file C:/git/cecs_561/FINAL/HDL/FINAL/FINAL.srcs/sources_1/bd/System/hw_handoff/System_bd.tcl
Generated Hardware Definition File C:/git/cecs_561/FINAL/HDL/FINAL/FINAL.srcs/sources_1/bd/System/synth/System.hwdef
INFO: [IP_Flow 19-4993] Using cached IP synthesis design for IP System_auto_pc_0, cache-ID = e61a66b19430793a; cache size = 11.868 MB.
[Sat May  4 09:44:05 2019] Launched System_processing_system7_0_0_synth_1, System_axi_dma_0_synth_1, System_auto_pc_1_synth_1, System_auto_us_0_synth_1...
Run output will be captured here:
System_processing_system7_0_0_synth_1: C:/git/cecs_561/FINAL/HDL/FINAL/FINAL.runs/System_processing_system7_0_0_synth_1/runme.log
System_axi_dma_0_synth_1: C:/git/cecs_561/FINAL/HDL/FINAL/FINAL.runs/System_axi_dma_0_synth_1/runme.log
System_auto_pc_1_synth_1: C:/git/cecs_561/FINAL/HDL/FINAL/FINAL.runs/System_auto_pc_1_synth_1/runme.log
System_auto_us_0_synth_1: C:/git/cecs_561/FINAL/HDL/FINAL/FINAL.runs/System_auto_us_0_synth_1/runme.log
[Sat May  4 09:44:06 2019] Launched synth_1...
Run output will be captured here: C:/git/cecs_561/FINAL/HDL/FINAL/FINAL.runs/synth_1/runme.log
launch_runs: Time (s): cpu = 00:00:21 ; elapsed = 00:00:23 . Memory (MB): peak = 1617.805 ; gain = 47.332
launch_runs impl_1 -jobs 4
[Sat May  4 09:45:08 2019] Launched System_axi_dma_0_synth_1, System_auto_pc_1_synth_1, System_auto_us_0_synth_1, synth_1...
Run output will be captured here:
System_axi_dma_0_synth_1: C:/git/cecs_561/FINAL/HDL/FINAL/FINAL.runs/System_axi_dma_0_synth_1/runme.log
System_auto_pc_1_synth_1: C:/git/cecs_561/FINAL/HDL/FINAL/FINAL.runs/System_auto_pc_1_synth_1/runme.log
System_auto_us_0_synth_1: C:/git/cecs_561/FINAL/HDL/FINAL/FINAL.runs/System_auto_us_0_synth_1/runme.log
synth_1: C:/git/cecs_561/FINAL/HDL/FINAL/FINAL.runs/synth_1/runme.log
[Sat May  4 09:45:09 2019] Launched impl_1...
Run output will be captured here: C:/git/cecs_561/FINAL/HDL/FINAL/FINAL.runs/impl_1/runme.log
reset_run synth_1
delete_bd_objs [get_bd_intf_nets MultiplyB_ip_0_AXI4_Stream_Master]
CRITICAL WARNING: [PSU-1]  Parameter : PCW_UIPARAM_DDR_DQS_TO_CLK_DELAY_0 has negative value -0.050 . PS DDR interfaces might fail when entering negative DQS skew values. 
CRITICAL WARNING: [PSU-2]  Parameter : PCW_UIPARAM_DDR_DQS_TO_CLK_DELAY_1 has negative value -0.044 . PS DDR interfaces might fail when entering negative DQS skew values. 
CRITICAL WARNING: [PSU-3]  Parameter : PCW_UIPARAM_DDR_DQS_TO_CLK_DELAY_2 has negative value -0.035 . PS DDR interfaces might fail when entering negative DQS skew values. 
CRITICAL WARNING: [PSU-4]  Parameter : PCW_UIPARAM_DDR_DQS_TO_CLK_DELAY_3 has negative value -0.100 . PS DDR interfaces might fail when entering negative DQS skew values. 
WARNING: [IP_Flow 19-474] Invalid Parameter 'Component_Name'
startgroup
set_property -dict [list CONFIG.PCW_USE_DMA0 {0}] [get_bd_cells processing_system7_0]
WARNING: [BD 41-1684] Pin /processing_system7_0/DMA0_ACLK is now disabled. All connections to this pin have been removed. 
endgroup
startgroup
set_property -dict [list CONFIG.c_sg_length_width {23} CONFIG.c_include_s2mm {1}] [get_bd_cells axi_dma]
endgroup
connect_bd_intf_net [get_bd_intf_pins MultiplyB_ip_0/AXI4_Stream_Master] [get_bd_intf_pins axi_dma/S_AXIS_S2MM]
validate_bd_design
ERROR: [BD 41-758] The following clock pins are not connected to a valid clock source: 
/axi_dma/m_axi_s2mm_aclk

ERROR: [Common 17-39] 'validate_bd_design' failed due to earlier errors.
connect_bd_net [get_bd_pins axi_dma/m_axi_s2mm_aclk] [get_bd_pins processing_system7_0/FCLK_CLK0]
validate_bd_design
WARNING: [BD 41-927] Following properties on pin /MultiplyB_ip_0/IPCORE_CLK have been updated from connected ip. They may not be synchronized with cell properties. You can set property on pin directly to confirm the value and resolve the warning.
	CLK_DOMAIN=System_processing_system7_0_0_FCLK_CLK0 
WARNING: [BD 41-927] Following properties on pin /MultiplyB_ip_0/AXI4_Lite_ACLK have been updated from connected ip. They may not be synchronized with cell properties. You can set property on pin directly to confirm the value and resolve the warning.
	CLK_DOMAIN=System_processing_system7_0_0_FCLK_CLK0 
apply_bd_automation -rule xilinx.com:bd_rule:axi4 -config { Clk_master {/processing_system7_0/FCLK_CLK0 (50 MHz)} Clk_slave {/processing_system7_0/FCLK_CLK0 (50 MHz)} Clk_xbar {/processing_system7_0/FCLK_CLK0 (50 MHz)} Master {/axi_dma/M_AXI_S2MM} Slave {/processing_system7_0/S_AXI_HP0} intc_ip {/axi_mem_intercon} master_apm {0}}  [get_bd_intf_pins axi_dma/M_AXI_S2MM]
</processing_system7_0/S_AXI_HP0/HP0_DDR_LOWOCM> is being mapped into </axi_dma/Data_S2MM> at <0x00000000 [ 1G ]>
save_bd_design
Wrote  : <C:\git\cecs_561\FINAL\HDL\FINAL\FINAL.srcs\sources_1\bd\System\System.bd> 
Wrote  : <C:/git/cecs_561/FINAL/HDL/FINAL/FINAL.srcs/sources_1/bd/System/ui/bd_671e18af.ui> 
reset_run System_axi_dma_0_synth_1
launch_runs impl_1 -to_step write_bitstream -jobs 4
WARNING: [BD 41-927] Following properties on pin /MultiplyB_ip_0/IPCORE_CLK have been updated from connected ip. They may not be synchronized with cell properties. You can set property on pin directly to confirm the value and resolve the warning.
	CLK_DOMAIN=System_processing_system7_0_0_FCLK_CLK0 
WARNING: [BD 41-927] Following properties on pin /MultiplyB_ip_0/AXI4_Lite_ACLK have been updated from connected ip. They may not be synchronized with cell properties. You can set property on pin directly to confirm the value and resolve the warning.
	CLK_DOMAIN=System_processing_system7_0_0_FCLK_CLK0 
Wrote  : <C:\git\cecs_561\FINAL\HDL\FINAL\FINAL.srcs\sources_1\bd\System\System.bd> 
WARNING: [BD 41-235] Width mismatch when connecting pin: '/axi_mem_intercon/m00_couplers/auto_pc/m_axi_bid'(1) to net 'auto_pc_to_m00_couplers_BID'(6) - Only lower order bits will be connected.
WARNING: [BD 41-235] Width mismatch when connecting pin: '/axi_mem_intercon/m00_couplers/auto_pc/m_axi_rid'(1) to net 'auto_pc_to_m00_couplers_RID'(6) - Only lower order bits will be connected.
WARNING: [BD 41-235] Width mismatch when connecting pin: '/processing_system7_0/S_AXI_HP0_WID'(6) to net 'axi_mem_intercon_M00_AXI_WID'(1) - Only lower order bits will be connected.
WARNING: [BD 41-235] Width mismatch when connecting pin: '/processing_system7_0/S_AXI_HP0_ARID'(6) to net 'axi_mem_intercon_M00_AXI_ARID'(1) - Only lower order bits will be connected.
WARNING: [BD 41-235] Width mismatch when connecting pin: '/processing_system7_0/S_AXI_HP0_AWID'(6) to net 'axi_mem_intercon_M00_AXI_AWID'(1) - Only lower order bits will be connected.
VHDL Output written to : C:/git/cecs_561/FINAL/HDL/FINAL/FINAL.srcs/sources_1/bd/System/synth/System.v
WARNING: [BD 41-235] Width mismatch when connecting pin: '/axi_mem_intercon/m00_couplers/auto_pc/m_axi_bid'(1) to net 'auto_pc_to_m00_couplers_BID'(6) - Only lower order bits will be connected.
WARNING: [BD 41-235] Width mismatch when connecting pin: '/axi_mem_intercon/m00_couplers/auto_pc/m_axi_rid'(1) to net 'auto_pc_to_m00_couplers_RID'(6) - Only lower order bits will be connected.
WARNING: [BD 41-235] Width mismatch when connecting pin: '/processing_system7_0/S_AXI_HP0_WID'(6) to net 'axi_mem_intercon_M00_AXI_WID'(1) - Only lower order bits will be connected.
WARNING: [BD 41-235] Width mismatch when connecting pin: '/processing_system7_0/S_AXI_HP0_ARID'(6) to net 'axi_mem_intercon_M00_AXI_ARID'(1) - Only lower order bits will be connected.
WARNING: [BD 41-235] Width mismatch when connecting pin: '/processing_system7_0/S_AXI_HP0_AWID'(6) to net 'axi_mem_intercon_M00_AXI_AWID'(1) - Only lower order bits will be connected.
VHDL Output written to : C:/git/cecs_561/FINAL/HDL/FINAL/FINAL.srcs/sources_1/bd/System/sim/System.v
VHDL Output written to : C:/git/cecs_561/FINAL/HDL/FINAL/FINAL.srcs/sources_1/bd/System/hdl/System_wrapper.v
INFO: [BD 41-1029] Generation completed for the IP Integrator block processing_system7_0 .
INFO: [BD 41-1029] Generation completed for the IP Integrator block ps7_0_axi_periph/xbar .
INFO: [BD 41-1029] Generation completed for the IP Integrator block rst_ps7_0_100M .
INFO: [BD 41-1029] Generation completed for the IP Integrator block MultiplyB_ip_0 .
INFO: [BD 41-1029] Generation completed for the IP Integrator block axi_dma .
INFO: [BD 41-1029] Generation completed for the IP Integrator block axi_mem_intercon/xbar .
WARNING: [IP_Flow 19-4994] Overwriting existing constraint file 'c:/git/cecs_561/FINAL/HDL/FINAL/FINAL.srcs/sources_1/bd/System/ip/System_auto_pc_0/System_auto_pc_0_ooc.xdc'
INFO: [BD 41-1029] Generation completed for the IP Integrator block ps7_0_axi_periph/s00_couplers/auto_pc .
WARNING: [IP_Flow 19-4994] Overwriting existing constraint file 'c:/git/cecs_561/FINAL/HDL/FINAL/FINAL.srcs/sources_1/bd/System/ip/System_auto_us_0/System_auto_us_0_ooc.xdc'
INFO: [BD 41-1029] Generation completed for the IP Integrator block axi_mem_intercon/s00_couplers/auto_us .
WARNING: [IP_Flow 19-4994] Overwriting existing constraint file 'c:/git/cecs_561/FINAL/HDL/FINAL/FINAL.srcs/sources_1/bd/System/ip/System_auto_us_1/System_auto_us_1_ooc.xdc'
INFO: [BD 41-1029] Generation completed for the IP Integrator block axi_mem_intercon/s01_couplers/auto_us .
WARNING: [IP_Flow 19-4994] Overwriting existing constraint file 'c:/git/cecs_561/FINAL/HDL/FINAL/FINAL.srcs/sources_1/bd/System/ip/System_auto_pc_1/System_auto_pc_1_ooc.xdc'
INFO: [BD 41-1029] Generation completed for the IP Integrator block axi_mem_intercon/m00_couplers/auto_pc .
Exporting to file C:/git/cecs_561/FINAL/HDL/FINAL/FINAL.srcs/sources_1/bd/System/hw_handoff/System.hwh
Generated Block Design Tcl file C:/git/cecs_561/FINAL/HDL/FINAL/FINAL.srcs/sources_1/bd/System/hw_handoff/System_bd.tcl
Generated Hardware Definition File C:/git/cecs_561/FINAL/HDL/FINAL/FINAL.srcs/sources_1/bd/System/synth/System.hwdef
INFO: [IP_Flow 19-4993] Using cached IP synthesis design for IP System_auto_pc_0, cache-ID = e61a66b19430793a; cache size = 15.557 MB.
INFO: [IP_Flow 19-4993] Using cached IP synthesis design for IP System_auto_pc_1, cache-ID = 9af2aa212b7691af; cache size = 15.557 MB.
INFO: [IP_Flow 19-4993] Using cached IP synthesis design for IP System_auto_us_0, cache-ID = 4898d79b0584984d; cache size = 15.558 MB.
INFO: [IP_Flow 19-4993] Using cached IP synthesis design for IP System_auto_us_1, cache-ID = 36846bcf44c43517; cache size = 15.558 MB.
INFO: [IP_Flow 19-4993] Using cached IP synthesis design for IP System_processing_system7_0_0, cache-ID = b750f579e393a7a7; cache size = 15.558 MB.
[Sat May  4 09:54:12 2019] Launched System_axi_dma_0_synth_1, System_xbar_1_synth_1, synth_1...
Run output will be captured here:
System_axi_dma_0_synth_1: C:/git/cecs_561/FINAL/HDL/FINAL/FINAL.runs/System_axi_dma_0_synth_1/runme.log
System_xbar_1_synth_1: C:/git/cecs_561/FINAL/HDL/FINAL/FINAL.runs/System_xbar_1_synth_1/runme.log
synth_1: C:/git/cecs_561/FINAL/HDL/FINAL/FINAL.runs/synth_1/runme.log
[Sat May  4 09:54:12 2019] Launched impl_1...
Run output will be captured here: C:/git/cecs_561/FINAL/HDL/FINAL/FINAL.runs/impl_1/runme.log
launch_runs: Time (s): cpu = 00:00:31 ; elapsed = 00:00:34 . Memory (MB): peak = 1700.973 ; gain = 82.742
close [ open C:/git/cecs_561/FINAL/HDL/FINAL/FINAL.srcs/constrs_2/new/dummy.xdc w ]
add_files -fileset constrs_2 C:/git/cecs_561/FINAL/HDL/FINAL/FINAL.srcs/constrs_2/new/dummy.xdc
reset_run impl_1 -prev_step 
report_ip_status -name ip_status 
open_bd_design {C:/git/cecs_561/FINAL/HDL/FINAL/FINAL.srcs/sources_1/bd/System/System.bd}
validate_bd_design -force
WARNING: [BD 41-927] Following properties on pin /MultiplyB_ip_0/IPCORE_CLK have been updated from connected ip. They may not be synchronized with cell properties. You can set property on pin directly to confirm the value and resolve the warning.
	CLK_DOMAIN=System_processing_system7_0_0_FCLK_CLK0 
WARNING: [BD 41-927] Following properties on pin /MultiplyB_ip_0/AXI4_Lite_ACLK have been updated from connected ip. They may not be synchronized with cell properties. You can set property on pin directly to confirm the value and resolve the warning.
	CLK_DOMAIN=System_processing_system7_0_0_FCLK_CLK0 
validate_bd_design: Time (s): cpu = 00:00:05 ; elapsed = 00:00:06 . Memory (MB): peak = 1777.953 ; gain = 0.000
report_ip_status -name ip_status 
save_bd_design
Wrote  : <C:\git\cecs_561\FINAL\HDL\FINAL\FINAL.srcs\sources_1\bd\System\System.bd> 
reset_run synth_1
launch_runs impl_1 -to_step write_bitstream -jobs 4
INFO: [BD 41-1662] The design 'System.bd' is already validated. Therefore parameter propagation will not be re-run.
WARNING: [BD 41-235] Width mismatch when connecting pin: '/axi_mem_intercon/m00_couplers/auto_pc/m_axi_bid'(1) to net 'auto_pc_to_m00_couplers_BID'(6) - Only lower order bits will be connected.
WARNING: [BD 41-235] Width mismatch when connecting pin: '/axi_mem_intercon/m00_couplers/auto_pc/m_axi_rid'(1) to net 'auto_pc_to_m00_couplers_RID'(6) - Only lower order bits will be connected.
WARNING: [BD 41-235] Width mismatch when connecting pin: '/processing_system7_0/S_AXI_HP0_WID'(6) to net 'axi_mem_intercon_M00_AXI_WID'(1) - Only lower order bits will be connected.
WARNING: [BD 41-235] Width mismatch when connecting pin: '/processing_system7_0/S_AXI_HP0_ARID'(6) to net 'axi_mem_intercon_M00_AXI_ARID'(1) - Only lower order bits will be connected.
WARNING: [BD 41-235] Width mismatch when connecting pin: '/processing_system7_0/S_AXI_HP0_AWID'(6) to net 'axi_mem_intercon_M00_AXI_AWID'(1) - Only lower order bits will be connected.
VHDL Output written to : C:/git/cecs_561/FINAL/HDL/FINAL/FINAL.srcs/sources_1/bd/System/synth/System.v
WARNING: [BD 41-235] Width mismatch when connecting pin: '/axi_mem_intercon/m00_couplers/auto_pc/m_axi_bid'(1) to net 'auto_pc_to_m00_couplers_BID'(6) - Only lower order bits will be connected.
WARNING: [BD 41-235] Width mismatch when connecting pin: '/axi_mem_intercon/m00_couplers/auto_pc/m_axi_rid'(1) to net 'auto_pc_to_m00_couplers_RID'(6) - Only lower order bits will be connected.
WARNING: [BD 41-235] Width mismatch when connecting pin: '/processing_system7_0/S_AXI_HP0_WID'(6) to net 'axi_mem_intercon_M00_AXI_WID'(1) - Only lower order bits will be connected.
WARNING: [BD 41-235] Width mismatch when connecting pin: '/processing_system7_0/S_AXI_HP0_ARID'(6) to net 'axi_mem_intercon_M00_AXI_ARID'(1) - Only lower order bits will be connected.
WARNING: [BD 41-235] Width mismatch when connecting pin: '/processing_system7_0/S_AXI_HP0_AWID'(6) to net 'axi_mem_intercon_M00_AXI_AWID'(1) - Only lower order bits will be connected.
VHDL Output written to : C:/git/cecs_561/FINAL/HDL/FINAL/FINAL.srcs/sources_1/bd/System/sim/System.v
VHDL Output written to : C:/git/cecs_561/FINAL/HDL/FINAL/FINAL.srcs/sources_1/bd/System/hdl/System_wrapper.v
INFO: [BD 41-1029] Generation completed for the IP Integrator block processing_system7_0 .
INFO: [BD 41-1029] Generation completed for the IP Integrator block ps7_0_axi_periph/xbar .
INFO: [BD 41-1029] Generation completed for the IP Integrator block rst_ps7_0_100M .
INFO: [BD 41-1029] Generation completed for the IP Integrator block MultiplyB_ip_0 .
INFO: [BD 41-1029] Generation completed for the IP Integrator block axi_dma .
INFO: [BD 41-1029] Generation completed for the IP Integrator block axi_mem_intercon/xbar .
WARNING: [IP_Flow 19-4994] Overwriting existing constraint file 'c:/git/cecs_561/FINAL/HDL/FINAL/FINAL.srcs/sources_1/bd/System/ip/System_auto_pc_0/System_auto_pc_0_ooc.xdc'
INFO: [BD 41-1029] Generation completed for the IP Integrator block ps7_0_axi_periph/s00_couplers/auto_pc .
WARNING: [IP_Flow 19-4994] Overwriting existing constraint file 'c:/git/cecs_561/FINAL/HDL/FINAL/FINAL.srcs/sources_1/bd/System/ip/System_auto_us_0/System_auto_us_0_ooc.xdc'
INFO: [BD 41-1029] Generation completed for the IP Integrator block axi_mem_intercon/s00_couplers/auto_us .
WARNING: [IP_Flow 19-4994] Overwriting existing constraint file 'c:/git/cecs_561/FINAL/HDL/FINAL/FINAL.srcs/sources_1/bd/System/ip/System_auto_us_1/System_auto_us_1_ooc.xdc'
INFO: [BD 41-1029] Generation completed for the IP Integrator block axi_mem_intercon/s01_couplers/auto_us .
WARNING: [IP_Flow 19-4994] Overwriting existing constraint file 'c:/git/cecs_561/FINAL/HDL/FINAL/FINAL.srcs/sources_1/bd/System/ip/System_auto_pc_1/System_auto_pc_1_ooc.xdc'
INFO: [BD 41-1029] Generation completed for the IP Integrator block axi_mem_intercon/m00_couplers/auto_pc .
Exporting to file C:/git/cecs_561/FINAL/HDL/FINAL/FINAL.srcs/sources_1/bd/System/hw_handoff/System.hwh
Generated Block Design Tcl file C:/git/cecs_561/FINAL/HDL/FINAL/FINAL.srcs/sources_1/bd/System/hw_handoff/System_bd.tcl
Generated Hardware Definition File C:/git/cecs_561/FINAL/HDL/FINAL/FINAL.srcs/sources_1/bd/System/synth/System.hwdef
INFO: [IP_Flow 19-4993] Using cached IP synthesis design for IP System_auto_pc_0, cache-ID = e61a66b19430793a; cache size = 21.323 MB.
INFO: [IP_Flow 19-4993] Using cached IP synthesis design for IP System_auto_pc_1, cache-ID = 9af2aa212b7691af; cache size = 21.323 MB.
INFO: [IP_Flow 19-4993] Using cached IP synthesis design for IP System_auto_us_0, cache-ID = 4898d79b0584984d; cache size = 21.323 MB.
INFO: [IP_Flow 19-4993] Using cached IP synthesis design for IP System_auto_us_1, cache-ID = 36846bcf44c43517; cache size = 21.323 MB.
[Sat May  4 10:35:26 2019] Launched synth_1...
Run output will be captured here: C:/git/cecs_561/FINAL/HDL/FINAL/FINAL.runs/synth_1/runme.log
[Sat May  4 10:35:26 2019] Launched impl_1...
Run output will be captured here: C:/git/cecs_561/FINAL/HDL/FINAL/FINAL.runs/impl_1/runme.log
launch_runs: Time (s): cpu = 00:00:04 ; elapsed = 00:00:09 . Memory (MB): peak = 1818.637 ; gain = 35.840
update_ip_catalog -rebuild -scan_changes
INFO: [IP_Flow 19-234] Refreshing IP repositories
INFO: [IP_Flow 19-1700] Loaded user IP repository 'c:/git/cecs_561/FINAL/SIMULINK/hdl_prj/ipcore/MultiplyB_ip_v1_0'.
report_ip_status -name ip_status
upgrade_ip -vlnv xilinx.com:ip:MultiplyB_ip:1.0 [get_ips  System_MultiplyB_ip_0_0] -log ip_upgrade.log
Upgrading 'C:/git/cecs_561/FINAL/HDL/FINAL/FINAL.srcs/sources_1/bd/System/System.bd'
WARNING: [Vivado 12-1017] Problems encountered:
1. Failed to delete one or more files in run directory C:/git/cecs_561/FINAL/HDL/FINAL/FINAL.runs/System_MultiplyB_ip_0_0_synth_1

INFO: [IP_Flow 19-3422] Upgraded System_MultiplyB_ip_0_0 (MultiplyB_ip 1.0) from revision 1905040701 to revision 1905041043
WARNING: [IP_Flow 19-4699] Upgrade has removed interface 'AXI4_Stream_Master'
WARNING: [IP_Flow 19-4699] Upgrade has removed interface 'AXI4_Stream_Slave'
WARNING: [IP_Flow 19-3670] Detected external interface differences while upgrading 'System_MultiplyB_ip_0_0'.
WARNING: [IP_Flow 19-4700] Upgrade has removed port 'AXI4_Stream_Master_TDATA'
WARNING: [IP_Flow 19-4700] Upgrade has removed port 'AXI4_Stream_Master_TLAST'
WARNING: [IP_Flow 19-4700] Upgrade has removed port 'AXI4_Stream_Master_TREADY'
WARNING: [IP_Flow 19-4700] Upgrade has removed port 'AXI4_Stream_Master_TVALID'
WARNING: [IP_Flow 19-4700] Upgrade has removed port 'AXI4_Stream_Slave_TDATA'
WARNING: [IP_Flow 19-4700] Upgrade has removed port 'AXI4_Stream_Slave_TREADY'
WARNING: [IP_Flow 19-4700] Upgrade has removed port 'AXI4_Stream_Slave_TVALID'
WARNING: [IP_Flow 19-3298] Detected external port differences while upgrading 'System_MultiplyB_ip_0_0'. These changes may impact your design.
CRITICAL WARNING: [BD 41-1165] The interface pin 'AXI4_Stream_Master' with bus definition 'xilinx.com:interface:axis:1.0' is not found on the upgraded version of the cell '/MultiplyB_ip_0'. Its connection to the interface net 'MultiplyB_ip_0_AXI4_Stream_Master' has been removed. 
CRITICAL WARNING: [BD 41-1165] The interface pin 'AXI4_Stream_Slave' with bus definition 'xilinx.com:interface:axis:1.0' is not found on the upgraded version of the cell '/MultiplyB_ip_0'. Its connection to the interface net 'axi_dma_M_AXIS_MM2S' has been removed. 
CRITICAL WARNING: [Coretcl 2-1279] The upgrade of 'System_MultiplyB_ip_0_0' has identified issues that may require user intervention. Please review the upgrade log 'c:/git/cecs_561/FINAL/HDL/FINAL/ip_upgrade.log', and verify that the upgraded IP is correctly configured.
Wrote  : <C:\git\cecs_561\FINAL\HDL\FINAL\FINAL.srcs\sources_1\bd\System\System.bd> 
Wrote  : <C:/git/cecs_561/FINAL/HDL/FINAL/FINAL.srcs/sources_1/bd/System/ui/bd_671e18af.ui> 
INFO: [Coretcl 2-1525] Wrote upgrade log to 'C:/git/cecs_561/FINAL/HDL/FINAL/ip_upgrade.log'.
export_ip_user_files -of_objects [get_ips System_MultiplyB_ip_0_0] -no_script -sync -force -quiet
generate_target all [get_files  C:/git/cecs_561/FINAL/HDL/FINAL/FINAL.srcs/sources_1/bd/System/System.bd]
CRITICAL WARNING: [xilinx.com:ip:axi_dma:7.1-11] /axi_dma
                   #################################### 
                   S_AXIS_S2MM interface is unconnected
                   ####################################
WARNING: [BD 41-927] Following properties on pin /MultiplyB_ip_0/IPCORE_CLK have been updated from connected ip. They may not be synchronized with cell properties. You can set property on pin directly to confirm the value and resolve the warning.
	CLK_DOMAIN=System_processing_system7_0_0_FCLK_CLK0 
WARNING: [BD 41-927] Following properties on pin /MultiplyB_ip_0/AXI4_Lite_ACLK have been updated from connected ip. They may not be synchronized with cell properties. You can set property on pin directly to confirm the value and resolve the warning.
	CLK_DOMAIN=System_processing_system7_0_0_FCLK_CLK0 
Wrote  : <C:\git\cecs_561\FINAL\HDL\FINAL\FINAL.srcs\sources_1\bd\System\System.bd> 
WARNING: [BD 41-235] Width mismatch when connecting pin: '/axi_mem_intercon/m00_couplers/auto_pc/m_axi_bid'(1) to net 'auto_pc_to_m00_couplers_BID'(6) - Only lower order bits will be connected.
WARNING: [BD 41-235] Width mismatch when connecting pin: '/axi_mem_intercon/m00_couplers/auto_pc/m_axi_rid'(1) to net 'auto_pc_to_m00_couplers_RID'(6) - Only lower order bits will be connected.
WARNING: [BD 41-235] Width mismatch when connecting pin: '/processing_system7_0/S_AXI_HP0_WID'(6) to net 'axi_mem_intercon_M00_AXI_WID'(1) - Only lower order bits will be connected.
WARNING: [BD 41-235] Width mismatch when connecting pin: '/processing_system7_0/S_AXI_HP0_ARID'(6) to net 'axi_mem_intercon_M00_AXI_ARID'(1) - Only lower order bits will be connected.
WARNING: [BD 41-235] Width mismatch when connecting pin: '/processing_system7_0/S_AXI_HP0_AWID'(6) to net 'axi_mem_intercon_M00_AXI_AWID'(1) - Only lower order bits will be connected.
VHDL Output written to : C:/git/cecs_561/FINAL/HDL/FINAL/FINAL.srcs/sources_1/bd/System/synth/System.v
WARNING: [BD 41-235] Width mismatch when connecting pin: '/axi_mem_intercon/m00_couplers/auto_pc/m_axi_bid'(1) to net 'auto_pc_to_m00_couplers_BID'(6) - Only lower order bits will be connected.
WARNING: [BD 41-235] Width mismatch when connecting pin: '/axi_mem_intercon/m00_couplers/auto_pc/m_axi_rid'(1) to net 'auto_pc_to_m00_couplers_RID'(6) - Only lower order bits will be connected.
WARNING: [BD 41-235] Width mismatch when connecting pin: '/processing_system7_0/S_AXI_HP0_WID'(6) to net 'axi_mem_intercon_M00_AXI_WID'(1) - Only lower order bits will be connected.
WARNING: [BD 41-235] Width mismatch when connecting pin: '/processing_system7_0/S_AXI_HP0_ARID'(6) to net 'axi_mem_intercon_M00_AXI_ARID'(1) - Only lower order bits will be connected.
WARNING: [BD 41-235] Width mismatch when connecting pin: '/processing_system7_0/S_AXI_HP0_AWID'(6) to net 'axi_mem_intercon_M00_AXI_AWID'(1) - Only lower order bits will be connected.
VHDL Output written to : C:/git/cecs_561/FINAL/HDL/FINAL/FINAL.srcs/sources_1/bd/System/sim/System.v
VHDL Output written to : C:/git/cecs_561/FINAL/HDL/FINAL/FINAL.srcs/sources_1/bd/System/hdl/System_wrapper.v
INFO: [BD 41-1029] Generation completed for the IP Integrator block processing_system7_0 .
INFO: [BD 41-1029] Generation completed for the IP Integrator block ps7_0_axi_periph/xbar .
INFO: [BD 41-1029] Generation completed for the IP Integrator block rst_ps7_0_100M .
INFO: [BD 41-1029] Generation completed for the IP Integrator block MultiplyB_ip_0 .
INFO: [BD 41-1029] Generation completed for the IP Integrator block axi_dma .
INFO: [BD 41-1029] Generation completed for the IP Integrator block axi_mem_intercon/xbar .
WARNING: [IP_Flow 19-4994] Overwriting existing constraint file 'c:/git/cecs_561/FINAL/HDL/FINAL/FINAL.srcs/sources_1/bd/System/ip/System_auto_pc_0/System_auto_pc_0_ooc.xdc'
INFO: [BD 41-1029] Generation completed for the IP Integrator block ps7_0_axi_periph/s00_couplers/auto_pc .
WARNING: [IP_Flow 19-4994] Overwriting existing constraint file 'c:/git/cecs_561/FINAL/HDL/FINAL/FINAL.srcs/sources_1/bd/System/ip/System_auto_us_0/System_auto_us_0_ooc.xdc'
INFO: [BD 41-1029] Generation completed for the IP Integrator block axi_mem_intercon/s00_couplers/auto_us .
WARNING: [IP_Flow 19-4994] Overwriting existing constraint file 'c:/git/cecs_561/FINAL/HDL/FINAL/FINAL.srcs/sources_1/bd/System/ip/System_auto_us_1/System_auto_us_1_ooc.xdc'
INFO: [BD 41-1029] Generation completed for the IP Integrator block axi_mem_intercon/s01_couplers/auto_us .
WARNING: [IP_Flow 19-4994] Overwriting existing constraint file 'c:/git/cecs_561/FINAL/HDL/FINAL/FINAL.srcs/sources_1/bd/System/ip/System_auto_pc_1/System_auto_pc_1_ooc.xdc'
INFO: [BD 41-1029] Generation completed for the IP Integrator block axi_mem_intercon/m00_couplers/auto_pc .
Exporting to file C:/git/cecs_561/FINAL/HDL/FINAL/FINAL.srcs/sources_1/bd/System/hw_handoff/System.hwh
Generated Block Design Tcl file C:/git/cecs_561/FINAL/HDL/FINAL/FINAL.srcs/sources_1/bd/System/hw_handoff/System_bd.tcl
Generated Hardware Definition File C:/git/cecs_561/FINAL/HDL/FINAL/FINAL.srcs/sources_1/bd/System/synth/System.hwdef
generate_target: Time (s): cpu = 00:00:07 ; elapsed = 00:00:09 . Memory (MB): peak = 1968.500 ; gain = 34.566
catch { config_ip_cache -export [get_ips -all System_MultiplyB_ip_0_0] }
catch { config_ip_cache -export [get_ips -all System_auto_pc_0] }
INFO: [IP_Flow 19-4993] Using cached IP synthesis design for IP System_auto_pc_0, cache-ID = e61a66b19430793a; cache size = 21.323 MB.
catch { config_ip_cache -export [get_ips -all System_auto_us_0] }
INFO: [IP_Flow 19-4993] Using cached IP synthesis design for IP System_auto_us_0, cache-ID = 4898d79b0584984d; cache size = 21.323 MB.
catch { config_ip_cache -export [get_ips -all System_auto_us_1] }
INFO: [IP_Flow 19-4993] Using cached IP synthesis design for IP System_auto_us_1, cache-ID = 36846bcf44c43517; cache size = 21.323 MB.
catch { config_ip_cache -export [get_ips -all System_auto_pc_1] }
INFO: [IP_Flow 19-4993] Using cached IP synthesis design for IP System_auto_pc_1, cache-ID = 9af2aa212b7691af; cache size = 21.323 MB.
export_ip_user_files -of_objects [get_files C:/git/cecs_561/FINAL/HDL/FINAL/FINAL.srcs/sources_1/bd/System/System.bd] -no_script -sync -force -quiet
create_ip_run [get_files -of_objects [get_fileset sources_1] C:/git/cecs_561/FINAL/HDL/FINAL/FINAL.srcs/sources_1/bd/System/System.bd]
launch_runs -jobs 4 System_MultiplyB_ip_0_0_synth_1
[Sat May  4 10:44:47 2019] Launched System_MultiplyB_ip_0_0_synth_1...
Run output will be captured here: C:/git/cecs_561/FINAL/HDL/FINAL/FINAL.runs/System_MultiplyB_ip_0_0_synth_1/runme.log
export_simulation -of_objects [get_files C:/git/cecs_561/FINAL/HDL/FINAL/FINAL.srcs/sources_1/bd/System/System.bd] -directory C:/git/cecs_561/FINAL/HDL/FINAL/FINAL.ip_user_files/sim_scripts -ip_user_files_dir C:/git/cecs_561/FINAL/HDL/FINAL/FINAL.ip_user_files -ipstatic_source_dir C:/git/cecs_561/FINAL/HDL/FINAL/FINAL.ip_user_files/ipstatic -lib_map_path [list {modelsim=C:/git/cecs_561/FINAL/HDL/FINAL/FINAL.cache/compile_simlib/modelsim} {questa=C:/git/cecs_561/FINAL/HDL/FINAL/FINAL.cache/compile_simlib/questa} {riviera=C:/git/cecs_561/FINAL/HDL/FINAL/FINAL.cache/compile_simlib/riviera} {activehdl=C:/git/cecs_561/FINAL/HDL/FINAL/FINAL.cache/compile_simlib/activehdl}] -use_ip_compiled_libs -force -quiet
reset_run impl_1
WARNING: [Vivado 12-1017] Problems encountered:
1. PID not specified

report_ip_status -name ip_status 
delete_bd_objs [get_bd_intf_nets axi_dma_M_AXIS_MM2S] [get_bd_intf_nets ps7_0_axi_periph_M01_AXI] [get_bd_intf_nets axi_dma_M_AXI_S2MM] [get_bd_intf_nets axi_dma_M_AXI_MM2S] [get_bd_intf_nets MultiplyB_ip_0_AXI4_Stream_Master] [get_bd_cells axi_dma]
delete_bd_objs [get_bd_intf_nets axi_mem_intercon_M00_AXI] [get_bd_cells axi_mem_intercon]
set_property location {2.5 1134 230} [get_bd_cells MultiplyB_ip_0]
startgroup
set_property -dict [list CONFIG.NUM_MI {1}] [get_bd_cells ps7_0_axi_periph]
endgroup
CRITICAL WARNING: [PSU-1]  Parameter : PCW_UIPARAM_DDR_DQS_TO_CLK_DELAY_0 has negative value -0.050 . PS DDR interfaces might fail when entering negative DQS skew values. 
CRITICAL WARNING: [PSU-2]  Parameter : PCW_UIPARAM_DDR_DQS_TO_CLK_DELAY_1 has negative value -0.044 . PS DDR interfaces might fail when entering negative DQS skew values. 
CRITICAL WARNING: [PSU-3]  Parameter : PCW_UIPARAM_DDR_DQS_TO_CLK_DELAY_2 has negative value -0.035 . PS DDR interfaces might fail when entering negative DQS skew values. 
CRITICAL WARNING: [PSU-4]  Parameter : PCW_UIPARAM_DDR_DQS_TO_CLK_DELAY_3 has negative value -0.100 . PS DDR interfaces might fail when entering negative DQS skew values. 
WARNING: [IP_Flow 19-474] Invalid Parameter 'Component_Name'
CRITICAL WARNING: [PSU-1]  Parameter : PCW_UIPARAM_DDR_DQS_TO_CLK_DELAY_0 has negative value -0.050 . PS DDR interfaces might fail when entering negative DQS skew values. 
CRITICAL WARNING: [PSU-2]  Parameter : PCW_UIPARAM_DDR_DQS_TO_CLK_DELAY_1 has negative value -0.044 . PS DDR interfaces might fail when entering negative DQS skew values. 
CRITICAL WARNING: [PSU-3]  Parameter : PCW_UIPARAM_DDR_DQS_TO_CLK_DELAY_2 has negative value -0.035 . PS DDR interfaces might fail when entering negative DQS skew values. 
CRITICAL WARNING: [PSU-4]  Parameter : PCW_UIPARAM_DDR_DQS_TO_CLK_DELAY_3 has negative value -0.100 . PS DDR interfaces might fail when entering negative DQS skew values. 
startgroup
set_property -dict [list CONFIG.PCW_USE_S_AXI_HP0 {0}] [get_bd_cells processing_system7_0]
CRITICAL WARNING: [PSU-1]  Parameter : PCW_UIPARAM_DDR_DQS_TO_CLK_DELAY_0 has negative value -0.050 . PS DDR interfaces might fail when entering negative DQS skew values. 
CRITICAL WARNING: [PSU-2]  Parameter : PCW_UIPARAM_DDR_DQS_TO_CLK_DELAY_1 has negative value -0.044 . PS DDR interfaces might fail when entering negative DQS skew values. 
CRITICAL WARNING: [PSU-3]  Parameter : PCW_UIPARAM_DDR_DQS_TO_CLK_DELAY_2 has negative value -0.035 . PS DDR interfaces might fail when entering negative DQS skew values. 
CRITICAL WARNING: [PSU-4]  Parameter : PCW_UIPARAM_DDR_DQS_TO_CLK_DELAY_3 has negative value -0.100 . PS DDR interfaces might fail when entering negative DQS skew values. 
WARNING: [BD 41-1684] Pin /processing_system7_0/S_AXI_HP0_ACLK is now disabled. All connections to this pin have been removed. 
endgroup
set_property location {2 800 210} [get_bd_cells ps7_0_axi_periph]
set_property location {2 800 200} [get_bd_cells ps7_0_axi_periph]
set_property location {2 800 190} [get_bd_cells ps7_0_axi_periph]
set_property location {2 800 180} [get_bd_cells ps7_0_axi_periph]
set_property location {2 800 190} [get_bd_cells ps7_0_axi_periph]
set_property location {572 61} [get_bd_intf_ports DDR]
set_property location {534 58} [get_bd_intf_ports DDR]
validate_bd_design
WARNING: [BD 41-927] Following properties on pin /MultiplyB_ip_0/IPCORE_CLK have been updated from connected ip. They may not be synchronized with cell properties. You can set property on pin directly to confirm the value and resolve the warning.
	CLK_DOMAIN=System_processing_system7_0_0_FCLK_CLK0 
WARNING: [BD 41-927] Following properties on pin /MultiplyB_ip_0/AXI4_Lite_ACLK have been updated from connected ip. They may not be synchronized with cell properties. You can set property on pin directly to confirm the value and resolve the warning.
	CLK_DOMAIN=System_processing_system7_0_0_FCLK_CLK0 
report_ip_status -name ip_status 
save_bd_design
Wrote  : <C:\git\cecs_561\FINAL\HDL\FINAL\FINAL.srcs\sources_1\bd\System\System.bd> 
Wrote  : <C:/git/cecs_561/FINAL/HDL/FINAL/FINAL.srcs/sources_1/bd/System/ui/bd_671e18af.ui> 
reset_run synth_1
launch_runs impl_1 -to_step write_bitstream -jobs 4
INFO: [BD 41-1662] The design 'System.bd' is already validated. Therefore parameter propagation will not be re-run.
VHDL Output written to : C:/git/cecs_561/FINAL/HDL/FINAL/FINAL.srcs/sources_1/bd/System/synth/System.v
VHDL Output written to : C:/git/cecs_561/FINAL/HDL/FINAL/FINAL.srcs/sources_1/bd/System/sim/System.v
VHDL Output written to : C:/git/cecs_561/FINAL/HDL/FINAL/FINAL.srcs/sources_1/bd/System/hdl/System_wrapper.v
INFO: [BD 41-1029] Generation completed for the IP Integrator block processing_system7_0 .
INFO: [BD 41-1029] Generation completed for the IP Integrator block rst_ps7_0_100M .
INFO: [BD 41-1029] Generation completed for the IP Integrator block MultiplyB_ip_0 .
WARNING: [IP_Flow 19-4994] Overwriting existing constraint file 'c:/git/cecs_561/FINAL/HDL/FINAL/FINAL.srcs/sources_1/bd/System/ip/System_auto_pc_0/System_auto_pc_0_ooc.xdc'
INFO: [BD 41-1029] Generation completed for the IP Integrator block ps7_0_axi_periph/s00_couplers/auto_pc .
Exporting to file C:/git/cecs_561/FINAL/HDL/FINAL/FINAL.srcs/sources_1/bd/System/hw_handoff/System.hwh
Generated Block Design Tcl file C:/git/cecs_561/FINAL/HDL/FINAL/FINAL.srcs/sources_1/bd/System/hw_handoff/System_bd.tcl
Generated Hardware Definition File C:/git/cecs_561/FINAL/HDL/FINAL/FINAL.srcs/sources_1/bd/System/synth/System.hwdef
INFO: [IP_Flow 19-4993] Using cached IP synthesis design for IP System_auto_pc_0, cache-ID = e61a66b19430793a; cache size = 21.551 MB.
[Sat May  4 10:47:53 2019] Launched System_processing_system7_0_0_synth_1, synth_1...
Run output will be captured here:
System_processing_system7_0_0_synth_1: C:/git/cecs_561/FINAL/HDL/FINAL/FINAL.runs/System_processing_system7_0_0_synth_1/runme.log
synth_1: C:/git/cecs_561/FINAL/HDL/FINAL/FINAL.runs/synth_1/runme.log
[Sat May  4 10:47:53 2019] Launched impl_1...
Run output will be captured here: C:/git/cecs_561/FINAL/HDL/FINAL/FINAL.runs/impl_1/runme.log
launch_runs: Time (s): cpu = 00:00:19 ; elapsed = 00:00:25 . Memory (MB): peak = 2047.238 ; gain = 65.316
report_ip_status -name ip_status 
reset_run impl_1
WARNING: [Vivado 12-1017] Problems encountered:
1. PID not specified

reset_run synth_1
launch_runs synth_1 -jobs 4
[Sat May  4 10:59:46 2019] Launched synth_1...
Run output will be captured here: C:/git/cecs_561/FINAL/HDL/FINAL/FINAL.runs/synth_1/runme.log
launch_runs impl_1 -jobs 8
[Sat May  4 11:00:41 2019] Launched impl_1...
Run output will be captured here: C:/git/cecs_561/FINAL/HDL/FINAL/FINAL.runs/impl_1/runme.log
launch_runs impl_1 -to_step write_bitstream -jobs 8
[Sat May  4 11:02:20 2019] Launched impl_1...
Run output will be captured here: C:/git/cecs_561/FINAL/HDL/FINAL/FINAL.runs/impl_1/runme.log
file copy -force C:/git/cecs_561/FINAL/HDL/FINAL/FINAL.runs/impl_1/System_wrapper.sysdef C:/git/cecs_561/FINAL/HDL/FINAL/FINAL.sdk/System_wrapper.hdf

launch_sdk -workspace C:/git/cecs_561/FINAL/HDL/FINAL/FINAL.sdk -hwspec C:/git/cecs_561/FINAL/HDL/FINAL/FINAL.sdk/System_wrapper.hdf
INFO: [Vivado 12-393] Launching SDK...
INFO: [Vivado 12-417] Running xsdk -workspace C:/git/cecs_561/FINAL/HDL/FINAL/FINAL.sdk -hwspec C:/git/cecs_561/FINAL/HDL/FINAL/FINAL.sdk/System_wrapper.hdf
INFO: [Vivado 12-3157] SDK launch initiated. Please check console for any further messages.
file mkdir C:/git/cecs_561/FINAL/HDL/FINAL/FINAL.sdk
file copy -force C:/git/cecs_561/FINAL/HDL/FINAL/FINAL.runs/impl_1/System_wrapper.sysdef C:/git/cecs_561/FINAL/HDL/FINAL/FINAL.sdk/System_wrapper.hdf

launch_sdk -workspace C:/git/cecs_561/FINAL/HDL/FINAL/FINAL.sdk -hwspec C:/git/cecs_561/FINAL/HDL/FINAL/FINAL.sdk/System_wrapper.hdf
INFO: [Vivado 12-393] Launching SDK...
INFO: [Vivado 12-417] Running xsdk -workspace C:/git/cecs_561/FINAL/HDL/FINAL/FINAL.sdk -hwspec C:/git/cecs_561/FINAL/HDL/FINAL/FINAL.sdk/System_wrapper.hdf
INFO: [Vivado 12-3157] SDK launch initiated. Please check console for any further messages.
CRITICAL WARNING: [PSU-1]  Parameter : PCW_UIPARAM_DDR_DQS_TO_CLK_DELAY_0 has negative value -0.050 . PS DDR interfaces might fail when entering negative DQS skew values. 
CRITICAL WARNING: [PSU-2]  Parameter : PCW_UIPARAM_DDR_DQS_TO_CLK_DELAY_1 has negative value -0.044 . PS DDR interfaces might fail when entering negative DQS skew values. 
CRITICAL WARNING: [PSU-3]  Parameter : PCW_UIPARAM_DDR_DQS_TO_CLK_DELAY_2 has negative value -0.035 . PS DDR interfaces might fail when entering negative DQS skew values. 
CRITICAL WARNING: [PSU-4]  Parameter : PCW_UIPARAM_DDR_DQS_TO_CLK_DELAY_3 has negative value -0.100 . PS DDR interfaces might fail when entering negative DQS skew values. 
WARNING: [IP_Flow 19-474] Invalid Parameter 'Component_Name'
launch_sdk -workspace C:/git/cecs_561/FINAL/HDL/FINAL/FINAL.sdk -hwspec C:/git/cecs_561/FINAL/HDL/FINAL/FINAL.sdk/System_wrapper.hdf
INFO: [Vivado 12-393] Launching SDK...
INFO: [Vivado 12-417] Running xsdk -workspace C:/git/cecs_561/FINAL/HDL/FINAL/FINAL.sdk -hwspec C:/git/cecs_561/FINAL/HDL/FINAL/FINAL.sdk/System_wrapper.hdf
INFO: [Vivado 12-3157] SDK launch initiated. Please check console for any further messages.
file mkdir C:/git/cecs_561/FINAL/HDL/FINAL/FINAL.sdk
file copy -force C:/git/cecs_561/FINAL/HDL/FINAL/FINAL.runs/impl_1/System_wrapper.sysdef C:/git/cecs_561/FINAL/HDL/FINAL/FINAL.sdk/System_wrapper.hdf

launch_sdk -workspace C:/git/cecs_561/FINAL/HDL/FINAL/FINAL.sdk -hwspec C:/git/cecs_561/FINAL/HDL/FINAL/FINAL.sdk/System_wrapper.hdf
INFO: [Vivado 12-393] Launching SDK...
INFO: [Vivado 12-417] Running xsdk -workspace C:/git/cecs_561/FINAL/HDL/FINAL/FINAL.sdk -hwspec C:/git/cecs_561/FINAL/HDL/FINAL/FINAL.sdk/System_wrapper.hdf
INFO: [Vivado 12-3157] SDK launch initiated. Please check console for any further messages.
